Area,Sources,1.1,1.2,1.3,1.4,1.5,1.6,1.7,2,3.1,3.2,4,5,6,7,9.1,9.2,9.3,10,11,12,13,14,15,Code available?,Prediction?,Basic Technique,Domain1,Domain2,Domain3,Domain4,
AP,\cite{sindhu_neuro-genetic_2006} ,+,-,-,,-,-,-,-,-,-,-,-,,-,-,,-,black box,-,-,,-,-,No,,Direct,IT Infrastructure,,,,
AP,\cite{zhou_novel_2013},+,-,+,+,-,-,-,-,-,-,+,-,,0.85,-,,-,black  box,-,-,-,~,-,No,,Direct,IT Infrastructure,,,,
AP,\cite{tan_adaptive_2010},+,-,+,+,-,-,-,+,~,-,+,-,,0.85-0.95,-,,-,white box,-,-,-,-,-,No,,Direct,IT Infrastructure,,,,
AP,\cite{wang_anomaly_2019},+,-,+,+,-,-,-,-,-,-,~,-,,0.52-0.70,-,,-,black box,-,-,-,~,-,No,,Indirect,IT Infrastructure,,,,
AP,\cite{lindemann_anomaly_2020},+,-,+,+,-,-,+,+,~,~,~,-,,-,-,,-,black box,-,-,-,-,+,No,,Indirect,CPS / Manufacturing,,,,
AP,\cite{li_anomaly_2022},-,-,-,+,-,-,-,-,-,-,~,-,,-,-,,-,white box,-,-,-,-,-,No,No event prediction,Indirect,Mobile infrastructure,,,,
AP,\cite{kitagawa_anomaly_2019},-,-,-,-,-,-,-,+,-,-,~,-,,0.40-0.80,-,,-,white box,-,-,-,-,-,No,No event prediction,Direct,?,,,,
AP,\cite{hadj-kacem_anomaly_2020},+,-,+,+,-,-,-,+,-,-,~,-,,-,-,,-,white box,-,-,-,~,-,No,,Indirect,Mobile infrastructure,,,,
AP,\cite{celenk_anomaly_2008},~,-,-,+,-,-,-,+,-,-,+,-,,-,-,,-,white box,-,-,-,~,-,No,,Indirect,Network infrastructure,,,,
AP,\cite{liu_deep_2020},-,-,-,-,-,-,-,-,-,-,~,-,,0.98,-,,-,black box,-,-,-,-,-,No,No event prediction,Indirect,Network infrastructure,,,,
AP,\cite{xie_domain_2022},-,-,-,-,-,-,-,~,-,-,~,-,,-,-,,-,black box,-,-,-,-,-,No,No event prediction,Direct,IT Infrastructure,,,,
AP,\cite{jiang_ensemble_2018},+,-,+,+,-,-,-,-,-,-,+,-,,-,-,,-,black box,-,-,-,-,-,No,,Direct,Natural disaster,,,,
AP,\cite{yang_fedadmp_2021},~,-,-,+,-,-,-,-,-,-,~,-,,-,-,,-,black box,-,-,-,-,-,No,,Direct,Mobile user,,,,
AP,\cite{mehr_graph_2020},~,-,-,+,-,-,-,+,-,-,~,-,,-,-,,-,white box,-,-,-,-,-,No,,Direct,IT Infrastructure,,,,
AP,\cite{khan_hml-ids_2019,,,,,-,,,,,,,,,,,,,,,,,,,,No event prediction,,IT Infrastructure,,,,
AP,\cite{langone_interpretable_2020},~,~,-,+,-,-,-,+,~,~,~,-,,-,-,,-,white box,-,-,-,-,-,No,,Direct,CPS / Manufacturing,,,,
AP,\cite{asres_long_2022},+,-,+,+,-,-,+,-,-,-,~,-,,0.20-0.60,-,,-,black box,-,-,-,-,-,No,,Indirect,CPS,,,,
AP,\cite{diraco_machine_2023},~,-,-,-,-,-,-,~,-,-,~,-,,0.90-0.94,-,,-,black box,-,-,-,-,-,No,,Direct,CPS / Manufacturing,,,,
AP,\cite{liu_mining_2021},+,~,+,~,-,-,-,+,-,~,+,-,,0.85,-,,-,white box,-,-,-,-,-,No,,Direct,CPS,,,,
AP,\cite{li_network_2022},~,-,-,+,-,-,-,-,-,-,~,-,,0.42-1.00,-,,-,black box,-,-,-,-,-,No,,Direct,IT Infrastructure,,,,
AP,\cite{gu_online_2009},+,-,+,+,-,-,+,+,-,~,+,-,,0.60-0.78,-,,-,white box,-,-,-,-,-,No,,Indirect,IT Infrastructure,,,,
AP,\cite{diallo_preemptive_2021},~,-,-,~,-,-,-,+,-,-,+,-,,-,-,,-,white box,-,-,-,-,-,No,Not implemented,Direct,IT Infrastructure,,,,
AP,\cite{wang_sensor_2018},~,~,-,~,-,-,-,~,-,-,+,-,,0.88-0.92,-,,-,white box,-,-,-,-,-,No,Early stage,Direct,CPS / Manufacturing,,,,
AP,\cite{hong_entropy_2016} ,-,-,-,+,-,-,-,-,-,-,+,-,,-,-,,-,white box,-,-,-,-,-,No,No event prediction,Indirect,CPS,,,,
AP,\cite{huang_using_2016} ,+,-,+,+,-,-,-,-,-,-,~,-,,0.89-0.96,-,,-,black box,-,-,-,-,-,No,,Direct,IT Infrastructure,,,,
AP,\cite{bouzar-benlabiod_variational_2019},~,-,-,+,-,-,-,-,-,-,~,-,,0.71,-,,-,black box,-,-,-,-,-,No,,Indirect,IT Infrastructure,,,,
IP,\cite{duan_metric-learning-based_2020},,,,,,,,,,,,,,,,,,,,,,,,,No event prediction,Indirect,CPS / Manufacturing,,,,
IP,\cite{ding_novel_2013},+,-,+,+,-,-,-,+,-,~,~,-,,-,-,,-,both,-,-,-,-,-,No,,Direct,CPS / Manufacturing,,,,
IP,\cite{marquez-chamorro_context-aware_2020},~,-,-,+,-,-,-,+,-,~,~,-,,-,-,,-,white box,+,-,-,-,+,Yes,,Direct,Business processes,IT service,Incident management,BPI,
IP,\cite{ren_mctan_2022},~,-,-,+,-,-,-,-,-,-,~,-,,-,-,,-,black box,-,-,-,-,-,No,,Direct,CPS,,,,
EP,\cite{antunes_bayesian_2003},+,-,+,+,-,-,-,+,-,-,+,-,,-,-,,-,white box,-,-,-,-,-,No,,Direct,Theoretical stochastic process,,,,
EP,\cite{fard_early-stage_2016},~,-,-,+,-,-,-,+,-,-,+,-,,-,-,,-,white box,-,-,-,-,-,Yes,,Direct,Healthcare,,,,
EP/PPM,\cite{le_hybrid_2017},~,-,-,-,-,-,+,+,-,-,~,-,,-,-,,-,white box,-,-,-,-,-,No,,Direct,Business processes,Telecommunication,Incident management,BPI,
EP/PPM,\cite{mehdiyev_multi-stage_2017},~,-,-,-,-,-,-,-,-,-,~,-,,0.64-0.82,-,,-,black box,+,-,~,-,-,No,,Direct,Business processes,Various,Various,BPI,
EP,\cite{liu_new_2004},+,~,+,+,-,-,-,+,+,~,~,-,,-,-,,-,white box,-,-,-,-,+,No,,Direct,Criminality,,,,
EP,\cite{tsai_scenario-aware_2022},~,-,-,+,+,-,-,+,-,~,~,-,,-,-,,-,white box,-,-,+,-,+,No,Not evaluated/implemented,Direct,CPS,,,,
EP,\cite{kim_study_2014},~,-,-,~,-,-,-,+,-,-,~,-,,-,-,,-,white box,-,-,-,-,-,No,Not evaluated,Direct,IT infrastructure,,,,
EP,\cite{cho_tree-based_2008},~,-,-,~,-,-,-,+,-,~,~,-,,-,-,,-,white box,-,-,-,-,-,No,No mining of episodes,Direct,Traffic,IT hardware,,,
EP,\cite{yu_abnormal_2021},,,,,,,,,,,,,,,,,,,,,,,,,No event prediction,,Criminality,,,,
EP,\cite{gainaru_adaptive_2011},~,-,-,~,-,-,-,+,-,~,+,-,,0.48-0.64,-,,-,white box,-,-,-,-,-,No,,Direct,IT Infrastructure,,,,
EP,\cite{aharon_adaptive_2017},,,,,,,,,,,,,,,,,,,,,,,,,No event prediction,,Advertising,,,,
EP,\cite{cortez_architecture_2018},~,-,-,+,-,-,-,-,-,-,~,-,,0.61-0.69,-,,-,black box,-,-,-,-,-,No,,Direct,Criminality,,,,
EP,\cite{tama_empirical_2020},Moved to EP Surveys,,,,,,,,,,,,,,,,,,,,,,,,Survey,,,,,,
EP,\cite{ngaffo_event_2019},~,-,-,-,-,-,-,+,-,-,~,-,,-,-,,-,white box,-,-,-,-,-,No,,Direct,IT service,,,,
EP,\cite{zhang_analogous_2020},+,-,+,-,-,-,+,+,-,~,~,-,,-,-,,-,white box,-,~,-,-,~,No,"Vertical prediction, ie for unseen processes, not what happens next (horizontal prediction)",Direct,NLP,,,,
EP,\cite{duenas_applying_2018},~,-,-,+,-,-,-,~,~,-,~,-,,-,-,,-,white box,-,-,-,-,-,Yes,,Direct,Network infrastructure,,,,
EP,\cite{shin_autoencoder-based_2019},~,-,-,-,-,-,-,-,-,-,~,-,,0.78-0.83,-,,-,black box,-,-,-,-,-,No,,Direct,Natural disaster,,,,
EP,\cite{cheon_bayesian_2009},~,-,-,+,-,-,-,+,~,~,~,-,,0.49-0.57,-,,-,white box,-,-,-,-,-,No,,Direct,Natural disaster,,,,
EP,\cite{sahoh_beyond_2021},,,,,,,,,,,,,,,,,,,,,,,,,No prediction,,,,,,
EP,\cite{zhou_big_2022},,,,,,,,,,,,,,,,,,,,,,,,,No prediction,,,,,,
EP/PPM,\cite{rico_business_2021},+,-,+,+,-,-,-,+,-,-,+,-,,-,-,,-,white box,~,-,-,-,-,No,,Direct,Business processes,IT service,,,
EP,\cite{lajevardi_combination_2008},~,-,-,+,-,-,-,+,-,~,~,-,,-,-,,-,white box,-,-,-,-,-,No,,Direct,Natural disaster,,,,
EP,\cite{alevizos_complex_2022},+,+,-,~,-,-,-,+,+,~,~,-,,0.70-0.80,-,,-,white box,-,-,-,~,-,No,,Direct,Logistics,,,,
EP,\cite{liu_constructing_2021},+,-,-,-,-,-,-,-,-,-,~,-,,-,-,,-,black box,-,-,-,-,-,No,,Direct,CPS / Manufacturing,,,,
EP,\cite{okawa_context-aware_2022},+,+,+,+,-,-,-,-,-,-,~,-,,-,-,,-,black box,-,-,-,-,-,No,,Direct,Natural disaster,Criminality,Disease,,
EP,\cite{sahoo_critical_2003},+,~,-,~,-,-,-,+,+,+,~,-,,-,-,,-,white box,-,-,-,-,-,No,,Direct,IT Infrastructure,,,,
EP,\cite{li_data_2020},~,-,-,+,-,-,+,+,~,~,+,-,,0.70-0.98,-,,-,white box,-,-,-,-,-,No,,Direct,Disease,Logistics,Oil incident,,
EP,\cite{zhang_deep_2017},~,-,-,+,-,-,-,-,-,-,~,-,,-,-,,-,black box,-,-,-,-,-,No,,Direct,IT Infrastructure,Energy,,,
EP,\cite{okawa_deep_2019},See above at \cite{okawa_context-aware_2022},,,,,,,,,,,,,,,,,,,,,,,,,,,,,,
EP,\cite{fahed_distant_2020},~,~,-,-,-,-,-,+,~,~,~,-,,-,-,,-,white box,-,-,-,-,-,No,,Direct,Internet behavior,Finance,,,
EP,\cite{kiyomaru_diversity-aware_2019},~,+,-,-,-,-,-,-,-,-,~,-,,-,-,,-,black box,-,-,-,-,-,Yes,,Direct,Natural language instructions,,,,
EP,\cite{aggarwal_dynamic_2020},~,-,-,-,-,-,-,-,+,-,~,-,,-,-,,-,black box,-,-,-,-,-,No,,Direct,Customer behavior,,,,
EP,\cite{luo_dynamic_2020},~,-,-,-,-,-,-,-,~,-,+,-,,-,-,,-,black box,-,-,-,-,-,No,,Direct,CPS / Manufacturing,,,,
EP,\cite{yuan_event_2011},~,-,-,+,-,~,-,+,~,-,+,-,,-,-,,-,white box,~,-,-,-,-,No,,Direct,CPS,,,,
EP,\cite{bekeneva_event_2019},~,~,~,-,-,-,-,+,~,-,~,-,,-,-,,-,white box,-,-,-,-,-,No,,Direct,CPS / Manufacturing,,,,
EP,\cite{dourado_event_2019},,,,,,,,,,,,,,,,,,,,,,,,,No prediction,,,,,,
EP,\cite{karakostas_event_2016},~,+,-,-,-,-,-,+,~,-,~,-,,-,-,,-,white box,-,-,-,-,-,No,,Direct,Aviation,,,,
EP,\cite{fu_event_2021},,,,,,,,,,,,,,,,,,,,,,,,,"Not able to assess all criteria due to lack of information, but it seems that it is actuall a detection framework. ",,,,,,
EP,\cite{fu_exploring_2007},~,-,-,~,-,~,-,-,~,-,~,-,,-,-,,-,black box,-,-,-,-,-,No,Mostly feature engineering,Direct,IT Infrastructure,,,,
EP,\cite{vrignat_failure_2015} ,~,-,-,+,-,-,-,-,-,-,+,-,,-,-,,-,black box,-,-,-,-,-,No,,Direct,CPS / Manufacturing,,,,
EP,\cite{li_failure_2007},,,,,,,,,,,,,,,,,,,,,,,,, Previous work to \cite{yuan_event_2011},,,,,,
EP,\cite{su_hierarchical_2020},~,-,-,-,-,-,-,-,-,-,~,-,,-,-,,-,black box,-,-,-,-,+,No,,Direct,News,,,,
EP,\cite{zhao_hierarchical_2021},~,-,-,~,-,-,-,-,-,-,~,-,,-,-,,-,black box,-,-,-,-,+,No,,Direct,Aviation,,,,
EP,\cite{coniglio_infrequent_2021},~,-,-,+,-,-,-,~,-,-,~,-,,-,-,,-,both,-,-,-,-,~,No,,Direct,CPS / Manufacturing,,,,
EP,\cite{wu_joint_2022},+,+,+,+,~,~,-,-,+,-,~,-,,-,-,,-,black box,~,-,~,+,-,No,,Direct,Network infrastructure,,,,
EP,\cite{rudin_learning_2013},~,-,-,-,-,-,-,+,~,-,~,-,,-,-,,-,white box,-,-,-,-,-,No,,Direct,Recommender systems,,,,
EP,\cite{zhu_link_2022},+,+,+,+,+,~,-,-,~,-,~,-,,-,-,,-,black box,-,-,-,-,+,No,,Direct,Social Media,E-Commerce,,,
EP,\cite{zhou_multi-task_2021},~,+,-,-,-,-,-,-,-,-,~,-,,-,-,,-,black box,+,-,-,-,+,No,,Direct,News,,,,
EP,\cite{jahani_multioutput_2021},~,~,+,+,-,-,-,-,+,-,~,-,,-,-,,-,black box,+,-,-,-,+,No,,Direct,Engineering systems,Predictive Maintenance,,,
EP,\cite{chang_naive_2019},,,,,,,,,,,,,,,,,,,,,,,,,No prediction,,,,,,
EP,\cite{cho_-line_2011},~,-,-,~,-,-,-,+,-,~,~,-,,-,-,,-,white box,-,-,-,-,-,No,No mining of episodes,Direct,Traffic,IT hardware,,,
EP,\cite{betskov_possibility_2019},,,,,,,,,,,,,,,,,,,,,,,,,No prediction,,,,,,
EP,\cite{casagrande_prediction_2019},~,-,-,~,-,-,-,-,-,-,~,-,,-,-,,-,black box,-,-,-,-,-,No,,Direct,Smart home,,,,
EP/PPM,\cite{taymouri_predictive_2020},~,-,+,+,-,-,-,-,-,-,~,-,,-,-,,-,black box,-,-,-,-,-,No,,Direct,Business processes,IT service,,BPI,
EP/PPM,\cite{heinrich_process_2021},~,-,-,-,-,-,-,-,-,-,~,-,,-,-,,-,black box,-,-,-,-,-,Yes,,Direct,Business processes,IT Service,Public Service,BPI,
EP,\cite{fullop_real_2012},+,~,-,+,-,-,-,+,~,-,+,-,,-,-,,-,white box,~,-,~,-,-,No,,Direct,IT Infrastructure,,,,
EP,\cite{li_reflection_2014},~,-,-,-,-,-,-,-,-,-,+,-,,-,-,,-,black box,-,-,-,-,-,No,,Direct,Customer behavior,,,,
EP,\cite{yan_research_2004},~,-,-,~,-,-,-,-,-,-,~,-,,-,-,,-,black box,-,-,-,-,-,No,,Direct,Customer behavior,,,,
EP,\cite{soleimani_scalable_2018},+,+,-,+,+,-,-,+,+,-,~,-,,0.75,-,,-,white box,+,-,-,+,+,No,,Indirect,Healthcare,,,,
EP,\cite{casagrande_sensor_2018},~,-,-,-,-,-,-,-,-,-,~,-,,-,-,,-,black box,-,-,-,-,-,No,,Direct,Smart home,,,,
EP,\cite{letham_sequential_2013},~,+,-,-,-,-,-,+,-,-,+,-,,-,-,,-,white box,-,-,-,-,-,No,,Direct,Recommender systems,CPS / Manufacturing,,,
EP,\cite{rudin_sequential_2011},See above at \cite{rudin_learning_2013},,,,,,,,,,,,,,,,,,,,,,,,See above at \cite{rudin_learning_2013},,,,,,
EP,\cite{mcginty_spatial_2009},+,+,-,-,-,-,-,+,+,-,~,-,,-,-,,-,white box,+,-,-,-,+,No,,Direct,Criminality,,,,
EP,\cite{hu_time-series_2021},~,-,-,+,-,-,-,+,~,-,~,-,,-,-,,-,black box,-,+,-,-,+,No,,Direct,CPS / Manufacturing,Finance,,,
EP,\cite{xu_training_2022},,,,,,,,,,,,,,,,,,,,,,,,,No prediction,,,,,,
EP,\cite{aggarwal_two_2018},~,~,-,+,-,-,-,-,-,-,~,-,,-,-,,-,black box,+,-,-,-,+,No,,Direct,CPS / Manufacturing,,,,
EP,\cite{bilos_uncertainty_2019},+,+,-,+,-,-,-,+,-,-,~,-,,-,-,,-,white box,-,-,-,~,-,Yes,,Direct,CPS / Manufacturing,Customer behavior,Smart home,,
EP,\cite{fox_using_2012},~,-,-,+,+,-,-,+,+,-,~,-,,-,-,,-,white box,+,-,-,-,-,No,,Direct,Criminality,,,,
EP,\cite{yang_web-log_2002},~,-,-,+,-,-,-,+,-,-,~,-,,-,-,,-,white box,-,-,-,-,-,No,,Direct,Customer behavior,,,,
EP,\cite{li_constructing_2018},~,+,-,-,+,-,-,-,~,-,~,-,,-,-,,-,black box,-,~,,-,-,Yes,,Direct,News,,,,
EP,\cite{yu_dram_2019},~,+,-,-,+,-,+,-,-,-,~,-,,-,-,,-,black box,~,-,,-,-,No,,Direct,News,,,,
EP,\cite{lei_event_2019},~,-,-,-,+,-,-,+,-,-,~,-,,-,-,,-,white box,-,~,,-,+,No,,Direct,News,,,,
EP,\cite{amodeo_hybrid_2011},~,+,-,~,-,-,-,+,-,-,~,-,,-,-,,-,white box,-,-,,-,-,No,,Direct,News,,,,
EP,\cite{bai_integrating_2021},~,+,-,-,+,-,-,~,-,-,~,-,,-,-,,-,black box,+,-,,-,+,No,,Direct,News,,,,
EP,\cite{wang_integrating_2017},~,+,-,-,+,-,-,-,-,-,~,-,,-,-,,-,black box,-,-,,-,-,No,,Direct,News,,,,
EP,\cite{zhang_introducing_2022},~,+,-,-,+,-,-,-,-,-,~,-,,-,-,,-,black box,+,-,,-,+,No,,Direct,News,,,,
EP,\cite{wang_multi-level_2021},~,+,-,-,+,-,-,-,-,-,~,-,,-,-,,-,black box,+,~,,-,+,Yes,,Direct,News,,,,
EP,\cite{yang_nargnn_2020},,,,,,,,,,,,,,,,,,,,,,,,,No prediction,,,,,,
EP,\cite{huang_script_2021},~,+,-,-,+,-,-,-,-,-,~,-,,-,-,,-,black box,-,-,,-,+,No,,Direct,News,,,,
EP,\cite{dai_quoc_nguyen_sequence_2017},,,,,,,,,,,,,,,,,,,,,,,,,Cannot assess due to lack of information,,,,,,
EP,\cite{li_future_2021},~,+,-,,+,-,-,+,~,-,~,-,,-,-,,-,black box,+,-,,-,+,Yes,,Direct,Criminality,News,,,
PPM,\cite{liu_stacking_2022},~,-,-,+,-,-,-,-,-,-,+,-,,-,-,,-,black box,+,-,,-,+,No,,Direct,CPS / Manufacturing,,,,
PPM,\cite{lu_business_2022},~,~,-,-,-,-,-,-,-,-,+,-,,-,-,,-,black box,-,-,,-,-,No,,Direct,Business processes,Finance,Healthcare,BPI,
PPM,\cite{wang_conformance-oriented_2022},~,-,-,-,-,-,-,~,~,-,~,-,,-,-,,-,black box,-,-,,-,-,Yes,,Direct,Business processes,Finance,,BPI,
PPM,\cite{alves_context-aware_2022},~,-,-,+,-,-,-,~,-,-,~,-,,-,-,,-,both,~,-,,-,+,No,,Direct,Business processes,Finance,Services,BPI,
PPM,\cite{zilker_designing_2022},~,-,-,-,~,-,-,-,-,-,~,-,,-,-,,-,black box,-,-,,-,-,No,,Direct,Business processes,Finance,Services,BPI,
PPM,\cite{vandenabeele_enhancing_2022},~,+,-,+,-,-,-,+,-,-,+,-,,-,-,,-,white box,-,-,,-,-,Yes,,Direct,Business processes,Finance,Services,Healthcare,BPI
PPM,\cite{elkhawaga_explainability_2022},,,,,,,,,,,,,,,,,,,,,,,,,No prediction,,,,,,
PPM,\cite{stevens_explainable_2022},,,,,,,,,,,,,,,,,,,,,,,,,No prediction (model development),,,,,,
PPM,\cite{rui_explainable_2022},~,-,-,+,-,-,-,-,~,-,~,-,,-,-,,-,black box,-,-,,-,-,No,,Direct,Business processes,Services,Healthcare,BPI,
PPM,\cite{rizzi_explainable_2022},,,,,,,,,,,,,,,,,,,,,,,,,No prediction (model development),,,,,,
PPM,\cite{chiorrini_exploiting_2022},~,-,-,-,-,-,-,-,-,-,~,-,,-,-,,-,black box,-,-,,-,-,No,,Indirect,Business processes,Services,BPI,,
PPM,\cite{lee_exploring_2022},~,-,-,-,-,-,-,+,+,-,~,-,,-,-,,-,white box,-,-,,-,-,No,,Direct,Business processes,Services,Finance,Healthcare,BPI
PPM,\cite{pasquadibisceglie_fox_2021},~,-,-,-,-,-,-,+,+,-,~,-,,-,-,,-,white box,-,-,,-,-,Yes,,Direct,Business processes,Services,Finance,Healthcare,BPI
PPM,\cite{fernandes_impact_2022} ,~,-,-,+,-,-,-,+,-,-,~,-,,-,-,,-,white box,-,-,,-,-,No,,Direct,Business processes,ServiceNow,,,
PPM,\cite{weytjens_learning_2022},~,+,-,+,-,-,+,~,-,-,~,~,,-,-,,-,black box,-,-,,~,-,Yes,,Direct,Business processes,BPI,,,
PPM,\cite{tama_leveraging_2022},~,-,-,-,-,-,-,-,-,-,~,-,,-,-,,-,black box,-,-,,-,~,Yes,,Direct,Business processes,BPI,,,
PPM,\cite{di_francescomarino_predictive_2022},,,,,,,,,,,,,,,,,,,,,,,,,"No prediction, survey",,,,,,
PPM,\cite{kamala_process_2022},,,,,,,,,,,,,,,,,,,,,,,,,"No prediction, mini survey",,,,,,
PPM,\cite{stevens_quantifying_2022},~,-,-,-,-,-,-,+,-,-,~,-,,-,-,,-,white box,-,-,,-,-,Yes,,Direct,Business processes,BPI,,,
PPM,\cite{pourbafrani_remaining_2022} ,~,-,-,+,-,-,-,-,-,-,~,-,,-,-,,-,black box,-,-,,-,+,Yes,,Direct,Business processes,BPI,,,
PPM,\cite{basler_three_2022},~,-,-,-,-,-,-,-,-,-,~,-,,-,-,,-,black box,-,-,,-,~,No,,Direct,Business processes,BPI,,,
PPM,\cite{portolani_uncertainty_2022},~,+,-,-,-,-,+,-,-,-,~,~,,-,-,,-,black box,-,-,,-,-,Yes,,Indirect,Business processes,BPI,,,
PPM,\cite{ronzani_unstructured_2022},~,-,-,-,-,-,-,-,-,-,~,-,,-,-,,-,-,-,-,,-,+,No,,Direct,Business processes,Healthcare,,,
PPM,\cite{marquez-chamorro_updating_2022},~,-,-,-,-,-,-,-,-,-,+,-,,-,-,,-,black box,-,-,,-,-,Yes,,Direct,Business processes,BPI,,,
PPM,\cite{el-khawaga_xai_2022},,,,,,,,,,,,,,,,,,,,,,,,,See \cite{elkhawaga_explainability_2022},,,,,,
PPM,\cite{bevacqua_data-driven_2014},~,-,-,+,-,-,-,+,-,-,~,-,,-,-,,-,white box,-,-,,-,-,No,,Direct,Business processes,Logistics,,,
PPM,\cite{kim_diagnostic_2021},,,,,,,,,,,,,,,,,,,,,,,,,"No prediction, study of sampling methods and evaluation metrics ",,,,,,
PPM,\cite{wolf_framework_2021} ,,,,,,,,,,,,,,,,,,,,,,,,,"No prediction, No prediction, survey extension of \cite{di_francescomarino_predictive_2018} with context",,,,,,
EP/PPM,\cite{le_hybrid_2012} ,,,,,,,,,,,,,,,,,,,,,,,,,Duplicate to EP,,,,,,
PPM,\cite{lakshmanan_markov_2015},~,+,~,-,-,-,-,+,~,-,~,-,,-,-,,-,white box,-,-,,-,+,No,,Indirect,Business processes,Services ,Artificial,,
EP/PPM,\cite{mehdiyev_multi-stage_2017},,,,,,,,,,,,,,,,,,,,,,,,,Duplicate to EP,,,,,,
PPM,\cite{pasquadibisceglie_multi-view_2021},~,~,~,-,-,-,-,-,-,-,~,-,,0.40-0.72,-,,-,black box,-,-,,-,+,Yes,,Indirect,Business processes,BPI,,,
PPM,\cite{mehdiyev_novel_2020},~,~,-,-,-,-,-,-,-,-,~,-,,0.66-0.82,-,,-,black box,-,-,,-,+,No,,Indirect,Business processes,BPI,,,
PPM,\cite{cuzzocrea_predictive_2018},,,,,,,,,,,,,,,,,,,,,,,,,Previous work to  \cite{cuzzocrea_predictive_2019},,,,,,
PPM,\cite{chiorrini_preliminary_2021},+,-,+,+,~,-,-,-,-,-,~,-,,-,-,,-,black box,-,-,,-,-,No,,Indirect,Business processes,BPI,,,
PPM,\cite{pandey_test-bed_2011} ,~,~,~,+,-,-,-,-,-,-,~,-,,-,-,,-,black box,-,-,,-,-,No,,Indirect,Business processes,Simulation,,,
PPM,\cite{aburomman_vector-based_2019},~,-,-,+,-,-,-,+,~,-,~,-,,-,-,,-,white box,-,-,,-,~,No,,Direct,Business processes,BPI,,,
PPM,\cite{di_mauro_activity_2019},~,~,-,-,-,-,-,-,-,-,~,+,,-,-,,-,black box,-,-,,-,-,Yes,,Indirect,Business processes,BPI,,,
PPM,\cite{galdo_seara_approach_2019},~,-,-,+,-,-,-,+,~,-,~,-,,-,-,,-,white box,-,-,,-,-,No,,Direct,Business processes,Finance,,,
PPM,\cite{choueiri_extended_2020},~,-,-,+,-,-,-,+,~,-,~,-,,-,-,,-,white box,-,-,,-,-,No,,Direct,Business processes,BPI,,,
PPM,\cite{di_francescomarino_eye_2017},+,~,+,-,-,-,-,-,-,-,~,-,,-,-,,-,black box,-,-,,-,-,Yes,,Indirect,Business processes,BPI,,,
PPM,\cite{tax_interdisciplinary_2020},,,,,,,,,,,,,,,,,,,,,,,,,"No prediction model development, empirical comparison",,,,,,
PPM,\cite{bartmann_applied_2021},,,,,,,,,,,,,,,,,,,,,,,,,"No prediction, only Camunda tool support",,,,,,
PPM,\cite{jalayer_attention_2020},~,-,-,-,-,-,-,-,-,-,~,-,,-,-,,-,black box,-,-,,-,-,No,Previous work to \cite{jalayer_ham-net_2022},Indirect,Business processes,BPI,,,
PPM,\cite{stierle_bringing_2021},,,,,,,,,,,,,,,,,,,,,,,,,"Duplicate to surveys, removed",,,,,,
EP/PPM,\cite{rico_business_2021},,,,,,,,,,,,,,,,,,,,,,,,,Duplicate to EP,,,,,,
PPM,\cite{solomon_business_2011},~,-,-,+,-,-,-,+,-,-,~,-,,-,-,,-,white box,-,-,,-,-,No,,Direct,Business processes,Simulation,,,
PPM,\cite{brunk_cause_2021},~,+,-,-,-,-,-,+,+,~,~,-,,-,-,,-,white box,-,-,,-,+,Yes,,Indirect,Business processes,Simulation,BPI,,
PPM,\cite{francescomarino_clustering-based_2019},~,-,-,-,-,-,-,-,-,-,~,-,,-,-,,-,black box,-,-,,-,-,Yes,,Direct,Business processes,BPI,,,
PPM,\cite{ogunbiyi_comparative_2020},,,,,,,,,,,,,,,,,,,,,,,,,"No prediction, survey",,,,,,
PPM,\cite{metzger_comparing_2015},,,,,,,,,,,,,,,,,,,,,,,,,"No prediction, survey",,,,,,
PPM,\cite{ceci_completion_2014},~,-,-,+,-,-,-,+,-,-,~,-,,-,-,,-,white box,-,-,,-,-,No,,Indirect,Business processes,Services,,,
PPM,\cite{verenich_complex_2016},~,-,-,-,-,-,-,-,-,-,~,-,,-,-,,-,black box,-,-,,-,-,No,,Direct,Business processes,BPI,,,
PPM,\cite{leontjeva_complex_2015},,,,,,,,,,,,,,,,,,,,,,,,,"No prediction, selective empirical comparison",,,,,,
PPM,\cite{harane_comprehensive_2020},,,,,,,,,,,,,,,,,,,,,,,,,"No prediction, survey ",,,,,,
PPM,\cite{becker_conceptualization_2020},,,,,,,,,,,,,,,,,,,,,,,,,"No prediction, process model for PPM projects",,,,,,
PPM,\cite{yeshchenko_context-aware_2018},~,-,-,+,-,-,-,-,-,-,~,-,,-,-,,-,black box,-,-,,-,+,Yes,,Direct,Business processes,BPI,,,
PPM,\cite{kappel_cost-sensitive_2021},~,~,-,-,-,-,-,-,-,-,~,-,,-,-,,-,black box,-,-,,-,-,Yes,,Indirect,Business processes,BPI,,,
PPM,\cite{weytjens_creating_2021},,,,,,,,,,,,,,,,,,,,,,,,,"No prediction, evaluation guideline",,,,,,
PPM,\cite{polato_data-aware_2014},~,-,-,+,~,-,-,+,-,-,~,-,,-,-,,-,white box,-,-,,-,~,No,,Direct,Business processes,Finance,,,
PPM,\cite{rama-maneiro_deep_2021},,,,,,,,,,,,,,,,,,,,,,,,,"No prediction, survey",,,,,,
PPM,\cite{lopez_castro_development_2021},~,-,-,-,-,-,-,~,-,-,~,-,,-,-,,-,both,-,-,,-,-,No,,Indirect,Business processes,CPS / Manufacturing,,,
PPM,\cite{ceci_distributed_2018},,,,,,,,,,,,,,,,,,,,,,,,,"Same as \cite{ceci_completion_2014}, but with MapReduce that has no impact on assessment ",,,,,,
PPM,\cite{comuzzi_does_2019},,,,,,,,,,,,,,,,,,,,,,,,,"No prediction, reliability metric proposal ",,,,,,
PPM,\cite{dumas_enabling_2015},,,,,,,,,,,,,,,,,,,,,,,,,"No prediction, intro to PPM and deviance mining ",,,,,,
PPM,\cite{taymouri_encoder-decoder_2020},,,,,,,,,,,,,,,,,,,,,,,,,Substantial overlap with \cite{taymouri_predictive_2020},,,,,,
PPM,\cite{taymouri_predictive_2020},+,-,+,+,-,-,-,-,-,-,~,-,,-,-,,-,black box,-,-,,-,-,No,,Indirect,Business processes,BPI,,,
PPM,\cite{kim_encoding_2022},~,-,-,-,-,-,-,-,-,-,~,-,,-,-,,-,black box,-,-,,-,+,Yes,,Direct,Business processes,BPI,,,
PPM,\cite{kappel_evaluating_2021},,,,,,,,,,,,,,,,,,,,,,,,,"No prediction, survey on small datasets",,,,,,
PPM,\cite{rizzi_explainability_2020},~,-,-,-,-,-,-,+,-,+,~,-,,-,-,,-,black box,-,-,,-,-,No,,Direct,Business processes,BPI,,,
PPM,\cite{ouyang_explainable_2021},~,-,-,-,-,-,-,~,-,-,~,-,,-,-,,-,black box,-,-,,-,-,Yes,,Direct,Business processes,BPI,,,
PPM,\cite{mehdiyev_explainable_2021} ,~,-,-,-,-,-,-,~,-,-,~,-,,-,-,,-,black box,-,-,,-,-,No,,Direct,Business processes,Services,,,
PPM,\cite{harl_explainable_2020} ,~,-,-,-,-,-,-,+,-,+,~,-,,-,-,,-,black box,-,-,,-,-,No,,Direct,Business processes,BPI,,,
PPM,\cite{galanti_explainable_2020},~,-,-,-,-,-,-,+,-,~,~,-,,-,-,,-,black box,-,-,,-,-,No,,Direct,Business processes,Services,,,
PPM,\cite{fahrenkrog-petersen_fire_2022} ,~,-,-,-,-,-,-,-,-,-,~,-,,-,-,,-,black box,-,-,,-,-,Yes,,Direct,Business processes,BPI,Services,,
PPM,\cite{senderovich_knowledge-driven_2019} ,~,-,-,,-,-,-,-,-,-,~,-,,-,-,,-,black box,-,-,,-,+,No,,Direct,Business processes,CPS / Manufacturing,Healthcare,,
PPM,\cite{weinzierl_predictive_2020},+,-,+,,-,-,-,-,-,-,~,-,,-,-,,-,black box,-,-,,-,-,No,,Indirect,Business processes,BPI,,,
PPM,\cite{di_francescomarino_genetic_2018},~,-,-,,-,-,-,+,-,-,~,-,,-,-,,-,both,-,-,,-,-,No,,Direct,Business processes,BPI,,,
PPM,\cite{jalayer_ham-net_2022},~,-,-,-,-,-,-,+,-,~,~,-,,-,-,,-,black box,-,-,,-,-,No,,Indirect,Business processes,BPI,,,
PPM,\cite{maisenbacher_handling_2017},~,-,-,,-,-,-,~,-,-,+,-,,-,-,,-,both,-,-,,-,-,No,,Direct,Business processes,Healthcare,,,
PPM,\cite{prasidis_handling_2021},~,-,-,,-,-,~,+,-,-,+,-,,-,-,,-,white box,-,-,,-,-,No,,Indirect,Business processes,BPI,,,
PPM,\cite{rizzi_how_2022},~,-,-,,-,-,-,-,-,-,+,-,,-,-,,-,black box,-,-,,-,-,Yes,,Direct,Business processes,BPI,,,
PPM,\cite{klijn_identifying_2020} ,~,-,-,,-,-,-,+,-,-,~,-,,-,-,,-,white box,-,-,,-,+,Yes,,Direct,Business processes,BPI,,,
PPM,\cite{ogunbiyi_incorporating_2021},~,-,-,,-,-,-,+,-,-,~,-,,-,-,,-,white box,-,-,,-,+,Yes,,Direct,Business processes,BPI,,,
PPM,\cite{pauwels_incremental_2021},~,-,-,,-,-,-,-,-,-,+,-,,-,-,,-,black box,-,-,,-,-,No,,Indirect,Business processes,BPI,,,
PPM,\cite{heinrich_integrating_2017},,,,,,,,,,,,,,,,,,,,,,,,,"No prediction, no PPM ",,,,,,
PPM,\cite{galanti2021integration},,,,,,,,,,,,,,,,,,,,,,,,,"No prediction, tool implementation of \cite{galanti_explainable_2020} ",,,,,,
PPM,\cite{wang_interval-based_2021},~,-,-,,-,-,+,-,-,-,~,-,,-,-,,-,black box,-,-,,-,-,No,,Indirect,Business processes,BPI,,,
PPM,\cite{ogunbiyi_investigating_2020},~,-,-,,-,-,-,+,-,+,~,-,,-,-,,-,white box,-,-,,-,+,Yes,,Direct,Business processes,BPI,,,
PPM,\cite{weytjens_learning_2021},,,,,,,,,,,,,,,,,,,,,,,,,Previous work to \cite{weytjens_learning_2022},,,,,,
PPM,\cite{mehdiyev_local_2021},~,-,-,,-,-,-,+,-,-,~,-,,-,-,,-,black box,-,-,,-,-,No,,Direct,Business processes,CPS / Manufacturing,,,
PPM,\cite{bohmer_logo_2020},~,~,-,,-,-,-,+,-,-,~,-,,-,-,,-,white box,-,-,,-,-,Yes,,Indirect,Business processes,BPI,,,
PPM,\cite{navarin_lstm_2017},~,-,-,,-,-,-,-,-,-,~,-,,-,-,,-,black box,-,-,,-,-,No,,Direct,Business processes,BPI,,,
PPM,\cite{kratsch_machine_2021},,,,,,,,,,,,,,,,,,,,,,,,,"No prediction, survey for outcome oriented PPM",,,,,,
PPM,\cite{pasquadibisceglie_orange_2020},~,-,-,,-,-,-,-,-,-,~,-,,-,-,,-,black box,-,-,,-,-,No,,Direct,Business processes,BPI,,,
PPM,\cite{wang_outcome-oriented_2019},~,-,-,,-,-,-,-,-,-,~,-,,-,-,,-,black box,-,-,,-,-,No,,Direct,Business processes,BPI,,,
PPM,\cite{teinemaa_outcome-oriented_2019} ,,,,,,,,,,,,,,,,,,,,,,,,,"No prediction, empirical survey",,,,,,
PPM,\cite{wahid_parallel-structure_2021} ,~,-,-,,-,-,-,-,-,-,~,-,,-,-,,-,black box,-,-,,-,-,No,,Direct,Business processes,CPS / Manufacturing,,,
PPM,\cite{kang_periodic_2012},+,+,+,,~,-,-,+,-,-,~,-,,-,-,,-,white box,-,-,,-,-,No,,Indirect,Business processes,CPS / Manufacturing,,,
PPM,\cite{rogge-solti_prediction_2015},~,+,~,,-,-,-,+,-,-,~,-,,-,-,,-,white box,-,-,,-,-,Yes,,Indirect,Business processes,BPI,Logistics,,
PPM,\cite{brunk_prediction_2018},,,,,,,,,,,,,,,,,,,,,,,,,Previous work to \cite{brunk_cause_2021},,,,,,
PPM,\cite{liu_prediction_2018},~,-,-,,-,-,-,+,-,-,~,-,,-,-,,-,white box,-,-,,-,-,No,,Direct,Business processes,Healthcare,Services,,
PPM,\cite{rogge-solti_prediction_2013},,,,,,,,,,,,,,,,,,,,,,,,,Previous work to \cite{rogge-solti_prediction_2015},,,,,,
PPM,\cite{weinzierl_predictive_2021},~,+,-,,-,-,-,-,-,-,~,-,,0.16-1.00,-,,-,black box,-,-,,-,-,No,,Direct,Business processes,Services,BPI,Healthcare,
PPM,\cite{metzger_predictive_2017},~,-,-,,-,-,+,-,-,-,~,-,,0.55-0.68,-,,-,black box,-,-,,-,-,No,,Direct,Business processes,Logistics,,,
EP/PPM,\cite{taymouri_predictive_2020},,,,,,,,,,,,,,,,,,,,,,,,,Duplicate to EP,,,,,,
PPM,\cite{tax_predictive_2017},+,+,+,,-,-,-,-,-,-,~,-,,-,-,,-,black box,-,-,,-,-,No,,Indirect,Business processes,Services,BPI,,
PPM,\cite{teinemaa_predictive_2016},~,-,-,,-,-,-,+,-,-,~,-,,-,-,,-,white box,-,-,,-,+,Yes,,Direct,Business processes,Finance,,,
PPM,\cite{wahid_predictive_2019} ,,,,,,,,,,,,,,,,,,,,,,,,,Previous work to \cite{wahid_parallel-structure_2021}  ,,,,,,
PPM,\cite{maggi_predictive_2014},~,~,-,,-,-,-,+,~,-,+,-,,0.22-0.93,-,,-,white box,-,-,,-,~,No,,Direct,Business processes,BPI,,,
PPM,\cite{marquez-chamorro_predictive_2018},,,,,,,,,,,,,,,,,,,,,,,,,"No prediction, survey",,,,,,
PPM,\cite{cuzzocrea_predictive_2019},~,-,-,+,-,-,-,+,-,-,+,-,,-,-,,-,white box,~,-,,-,-,No,,Indirect,Business processes,Services,,,
PPM,\cite{spree_predictive_2020},,,,,,,,,,,,,,,,,,,,,,,,,"No prediction, survey",,,,,,
PPM,\cite{verenich_predictive_2018},,,,,,,,,,,,,,,,,,,,,,,,,"No prediction, tool support",,,,,,
PPM,\cite{gunnarsson_predictive_2019},~,-,-,,-,-,-,-,-,-,~,-,,-,-,,-,black box,-,-,,-,~,No,,Direct,Business processes,Logistics,,,
PPM,\cite{di_francescomarino_predictive_2018},,,,,,,,,,,,,,,,,,,,,,,,,"No prediction, survey",,,,,,
PPM,\cite{lamghari_predictive_2019},,,,,,,,,,,,,,,,,,,,,,,,,"No prediction, survey",,,,,,
PPM,\cite{khan_predictive_2019},~,-,-,,-,-,-,+,-,-,~,-,,-,-,,-,white box,-,-,,-,-,No,,Indirect,Business processes,Services,,,
PPM,\cite{cabanillas_predictive_2014} ,~,-,-,,-,-,-,+,-,-,~,-,,-,-,,-,white box,-,-,,-,~,No,,Direct,Business processes,Logistics,,,
PPM,\cite{bozorgi_prescriptive_2021},,,,,,,,,,,,,,,,,,,,,,,,,"No prediction, focus on prescription",,,,,,
PPM,\cite{conforti_prism_2016},~,~,-,,-,-,-,+,+,-,~,-,,-,-,,-,white box,-,-,,-,+,Yes,,Direct,Business processes,BPI,,,
PPM,\cite{tariq_proactive_2021} ,~,-,-,,-,-,-,-,-,-,~,-,,-,-,,-,black box,-,-,,-,-,No,,Direct,Business processes,Services,,,
PPM,\cite{bohmer_probability_2018},~,+,-,,-,-,-,+,-,-,~,-,,-,-,,-,white box,-,-,,-,-,No,,Indirect,Business processes,BPI,,,
PPM,\cite{weytjens_process_2020},,,,,,,,,,,,,,,,,,,,,,,,,"No prediction, empirical survey ",,,,,,
PPM,\cite{bolt_process_2014},~,-,-,,-,-,-,+,-,-,~,-,,-,-,,-,white box,-,-,,-,-,No,,Direct,Business processes,Simulation,,,
PPM,\cite{bukhsh_processtransformer_2021},~,-,-,,-,-,-,-,-,-,~,-,,-,-,,-,black box,-,-,,-,-,Yes,,Indirect,Business processes,BPI,,,
PPM,\cite{firouzian_real-time_2019},~,~,~,,-,-,-,+,~,-,~,-,,-,-,,-,white box,-,-,,-,-,No,,Indirect,Business processes,BPI,,,
PPM,\cite{cao_remaining_2021},~,-,-,,-,-,-,-,-,-,~,-,,-,-,,-,black box,-,-,,-,-,No,,Direct,Business processes,Simulation ,?,,
PPM,\cite{sun_remaining_2020},~,-,-,,-,-,-,-,-,-,~,-,,-,-,,-,black box,-,-,,-,+,No,,Direct,Business processes,BPI,,,
PPM,\cite{marquez-chamorro_run-time_2017} ,~,-,-,,-,-,-,+,~,-,~,-,,0.69-0.87,-,,-,white box,-,-,,-,~,No,,Direct,Business processes,BPI ,Healthcare,,
PPM,\cite{jian_selecting_2019},,,,,,,,,,,,,,,,,,,,,,,,,"Fascinating for PCM system (publishing points --> system architecture), but no prediction model",,,,,,
PPM,\cite{santoso_specification-driven_2020},,,,,,,,,,,,,,,,,,,,,,,,,"PCM system interface possible for predicate prediction, but no prediction method in itself",,,,,,
PPM,\cite{kim_stability_2021},,,,,,,,,,,,,,,,,,,,,,,,,"No prediction, but quality framework and metrics for evaluation",,,,,,
PPM,\cite{brunk_structuring_2020},,,,,,,,,,,,,,,,,,,,,,,,,"No prediction, context taxonomy",,,,,,
PPM,\cite{verenich_survey_2019},,,,,,,,,,,,,,,,,,,,,,,,,"No prediction, survey",,,,,,
EP,\cite{li_clustering-based_2014} ,~,~,-,,-,-,-,+,-,-,-,-,,-,-,,-,white box,-,-,,-,+,No,,Direct,Business failures,,,,
PPM,\cite{teinemaa_temporal_2018},,,,,,,,,,,,,,,,,,,,,,,,," No prediction, empirical survey with new property of prediction models: temporal stability",,,,,,
PPM,\cite{pegoraro_text-aware_2021},~,-,-,,~,-,-,-,-,-,~,-,,-,-,,-,black box,-,-,,-,+,No,,Indirect,Business processes,BPI,,,
PPM,\cite{drodt_recomminder_2021},,,,,,,,,,,,,,,,,,,,,,,,,"No prediction, but tool support to implement and configure PPM",,,,,,
PPM, \cite{polato_time_2018},+,+,+,,-,-,-,+,-,-,~,-,,-,-,,-,white box,-,-,,-,+,Yes,,Indirect,Business processes,BPI,,,
PPM, \cite{nguyen2020time},~,-,-,,-,-,-,-,-,-,~,-,,-,-,,-,black box,-,-,,-,-,Yes,,Indirect,Business processes,BPI,,,
PPM, \cite{huang_time_2014},~,-,-,,-,-,-,+,-,-,~,-,,-,-,,-,white box,-,-,,-,-,No,,Direct,Business processes,Simulation,,,
PPM,\cite{klinkmuller_towards_2018},,,,,,,,,,,,,,,,,,,,,,,,,"No prediction, but empirical study on feature encoding impacting reliability",,,,,,
PPM,\cite{ferreira_virtual_2015},,,,,,,,,,,,,,,,,,,,,,,,,"No prediction, rather system architecture for monitoring ",,,,,,
PPM,\cite{albertetti_workload_2020} ,+,-,~,,-,-,-,-,-,-,~,-,,-,-,,-,black box,-,-,,-,-,No,,Indirect,Business processes,Services,Orders,,
PCM,\cite{coppolino_sla_2010},,,,,,,,,,,,,,,,,,,,,,,,,"No prediction, SAP BO like framewor",,,,,,
PCM,\cite{metzger_predictive_2012},,,,,,,,,,,,,,,,,,,,,,,,,"No prediction, conceptual framework",,,,,,
PCM/PPM,\cite{weinzierl_predictive_2020},,,,,,,,,,,,,,,,,,,,,,,,,Duplicate to PPM,,,,,,
EP,\cite{eom_wtte-rnn_2022},-,-,-,,-,-,-,-,-,-,~,-,,-,-,,-,black box,-,-,,-,-,No,,Direct,Healthcare,,,,
EP,\cite{xu_alarm_2020},~,+,-,,-,-,+,+,-,-,~,-,,-,-,,-,white box,-,-,,-,-,No,,Direct,CPS / Manufacturing,,,,
EP,\cite{dubey_bayesian_2022},+,+,-,,-,-,+,-,-,-,~,+,,-,-,,-,black box,-,-,,~,-,No,,Direct,Criminality,Music,Social ,,
EP,\cite{gao_clinical_2022},+,-,-,,-,-,-,~,-,-,~,-,,-,-,,-,both,-,-,,-,-,No,,Direct,Healthcare,,,,
EP,\cite{lu_collaborative_2021},+,+,-,,-,-,-,-,-,-,~,-,,-,-,,-,black box,-,-,,-,+,Yes,,Direct,Healthcare,,,,
EP,\cite{wanyan_contrastive_2021},+,~,-,,-,-,-,+,-,-,~,-,,-,-,,-,black box,-,-,,-,+,No,,Direct,Healthcare,,,,
EP,\cite{do_carmo_embedding_2021},+,-,-,,+,-,-,+,-,-,+,-,,-,-,,-,white box,-,-,,-,+,Yes,,Direct,Social,,,,
EP,\cite{deep_event_2020},~,+,-,,-,-,-,+,-,-,+,-,,-,-,,-,white box,-,-,,+,-,No,,Direct,CPS / Manufacturing,,,,
EP,\cite{cekinel_event_2022},~,-,-,,-,-,-,+,~,-,~,-,,0.24-1.00,-,,-,white box,-,-,,-,+,No,,Direct,News,,,,
EP,\cite{weiss_forest-based_2013},+,+,-,,-,-,-,+,-,-,~,-,,0.50-0.60,-,,-,white box,-,-,,-,-,Yes,,Direct,Healthcare,,,,
EP,\cite{neumann_future_2019},-,+,-,,-,-,+,+,+,+,~,-,,-,-,,-,black box,-,-,,-,-,No,,Direct,Video,,,,
EP,\cite{huang_multi-head_2021},+,-,-,,-,-,-,-,-,-,~,-,,-,-,,-,black box,-,-,,-,-,No,,Direct,Crowd,,,,
EP,\cite{pourhomayoun_multiple_2014},+,-,-,,-,-,-,-,-,-,~,-,,-,-,,-,black box,-,-,,-,-,No,,Direct,Healthcare,,,,
EP,\cite{duan_clinical_2020},+,+,-,,-,-,-,-,-,-,~,-,,-,-,,-,black box,-,-,,-,+,Yes,,Direct,Healthcare,,,,
EP,\cite{tuke_pachinko_2020},~,+,-,,-,-,-,+,-,-,~,-,,-,-,,-,white box,-,-,,-,+,No,,Direct,Social ,Unrest,,,
EP,\cite{qiao_pairwise-ranking_2018},+,+,-,,-,-,-,-,-,-,~,-,,-,-,,-,black box,-,-,,-,+,No,,Direct,Healthcare,,,,
EP,\cite{pickett_random_2021},+,+,-,,-,-,~,+,+,-,+,+,,-,-,,-,black box,-,-,,+,+,Yes,,Direct,Healthcare,,,,
EP,\cite{lu_self-supervised_2021},+,+,-,,-,-,-,+,+,+,~,-,,-,-,,-,black box,-,-,,+,-,Yes,,Direct,Healthcare,,,,
EP,\cite{lu_context-aware_2022} ,+,-,-,,-,-,-,-,-,-,~,-,,-,-,,-,black box,-,-,,-,+,Yes,,Direct,Healthcare,,,,
EP,\cite{wu_uncertainty-aware_2021},~,-,-,,-,-,+,-,-,-,~,-,,-,-,,-,black box,-,-,,-,+,Yes,,Direct,Healthcare,,,,
EP,\cite{yang_using_2019},+,-,-,,-,-,-,-,-,-,~,-,,-,-,,-,black box,-,-,,-,+,No,,Direct,Finance,,,,
EPS,\cite{ren_deep_2018},~,-,-,,~,-,-,-,-,-,~,-,,-,-,,-,black box,-,-,,-,-,No,,Direct,Traffic,,,,
EPS,\cite{wang_hierarchical_2015},~,-,-,,-,-,-,+,-,-,~,-,,-,-,,-,white box,-,-,,-,~,No,,Direct,Weather,,,,
EPS,\cite{xue_miml-lstm_2018} ,+,+,-,,-,-,-,+,-,+,~,-,,-,-,,-,black box,-,-,,-,-,No,,Direct,News,,,,
EPS,\cite{ulfelder_multimodel_2013},~,-,-,,-,-,-,-,-,-,~,-,,-,-,,-,black box,-,-,,-,+,No,,Direct,Social,Unrest,,,
EPS,\cite{liao_novel_2010},~,+,-,,-,-,-,+,+,+,+,-,,-,-,,-,white box,-,-,,-,+,No,,Direct,Criminality,,,,
EPS,\cite{zhou_pattern_2015},+,~,-,,-,-,-,+,-,-,+,-,,-,-,,-,white box,-,-,,-,-,No,,Direct,CPS / Manufacturing,Customer behavior,,,
EPS,\cite{rudin_process_2010},~,~,-,,-,-,-,+,+,-,~,-,,-,-,,-,white box,-,-,,-,+,No,,Direct,Electrical Infrastructure,,,,
EPS,\cite{yi_integrated_2018},~,-,-,,-,-,-,+,-,-,~,-,,-,-,,-,white box,-,-,,-,+,No,,Direct,Criminality,,,,
EPS,\cite{boni_area-specific_2016},+,~,-,,-,-,-,+,-,-,~,-,,-,-,,-,white box,-,-,,-,~,No,,Direct,Criminality,,,,
EPS,\cite{ramakrishnan_beating_2014},+,+,-,,+,~,+,~,-,-,+,+,,-,-,,-,black box,+,~,,~,+,No,,Direct,Social,Unrest,,,
EPS,\cite{kang_carbon_2017},+,+,-,,+,-,-,+,+,+,+,-,,-,-,,-,white box,-,~,,-,+,No,,Direct,Social ,Unrest,,,
EPS,\cite{acharya_causal_2017},~,+,-,,-,-,~,+,~,-,+,-,,-,-,,-,white box,-,~,,-,-,No,,Direct,Electrical Infrastructure,Customer behavior,,,
EPS,\cite{jiang_deepurbanevent_2019},~,-,-,,-,-,-,-,-,-,+,-,,-,-,,-,black box,-,-,,-,~,No,,Direct,Social,,,,
EPS,\cite{zhao_distant-supervision_2018},+,-,-,,+,-,-,-,-,-,~,-,,-,-,,-,black box,-,-,,-,+,No,,Direct,Social,Unrest,,,
EPS,\cite{adhikari_epideep_2019},+,-,-,,+,-,-,~,-,-,~,-,,-,-,,-,black box,-,-,,-,+,No,,Direct,Healthcare,,,,
EPS,\cite{de_caigny_new_2018} ,~,-,-,,-,-,-,+,-,-,~,-,,-,-,,-,white box,-,-,,-,+,No,,Direct,Customer behavior,,,,
EPS,\cite{bao_spatiotemporal_2019},~,+,-,,-,-,-,-,+,-,~,-,,-,-,,-,black box,-,-,,-,+,No,,Direct,Traffic,,,,
EPS,\cite{zhou_tensor_2019} ,~,-,+,,+,-,-,-,-,-,~,-,,-,-,,-,black box,-,-,,-,+,No,,Indirect,Environment,,,,
EPS,\cite{hoegh_bayesian_2015},+,+,-,,+,-,~,~,-,-,~,+,,-,-,,-,black box,-,~,,-,+,Yes,,Direct,Social ,Unrest,,,
EPS,\cite{bisset_epifast_2009},,,,,,,,,,,,,,,,,,,,,,,,,"No prediction model development, but very interesting simulation engine on networks",,,,,,
EPS,\cite{wang_csan_2020},+,+,-,,+,-,-,-,-,-,~,+,,-,-,,-,black box,-,-,,-,+,No,,Direct,Criminality,,,,
EPS,\cite{calabrese_estimating_2016},~,-,-,,-,-,-,+,-,-,~,-,,-,-,,-,white box,-,-,,-,+,No,,Direct,Social,Political,,,
EPS,\cite{hurriyetoglu_estimating_2018},,,,,,,,,,,,,,,,,,,,,,,,,"No prediction, excluded for too little model advancement",,,,,,
EPS,\cite{fronza_failure_2013},~,-,-,,-,-,-,+,-,-,+,-,,-,-,,-,white box,-,-,,-,-,No,,Direct,Software ,IT,,,
EPS,\cite{matsubara_fast_2012} ,+,-,+,,+,-,-,~,+,-,+,-,,-,-,,-,white box,-,-,,-,-,No,,Indirect,Customer behavior,,,,
EPS,\cite{blair_forecasting_2020},~,-,~,,-,-,-,~,-,-,+,-,,-,-,,-,black box,-,-,,-,+,Yes,,Direct,Social ,War,,,
EPS,\cite{vahedian_forecasting_2017},~,+,~,,-,-,~,+,+,~,+,-,,-,-,,-,white box,+,-,,-,~,No,Previous work to \cite{khezerlou_forecasting_2021} ,Indirect,Traffic,,,,
EPS,\cite{khezerlou_forecasting_2021} ,~,+,~,,-,-,~,+,+,~,+,-,,-,-,,-,white box,+,-,,-,~,No,,Indirect,Traffic,,,,
EPS,\cite{reid_forecasting_2018},~,-,-,,-,-,-,-,-,-,~,-,,-,-,,-,black box,-,-,,-,~,No,,Indirect,Weather,,,,
EPS,\cite{yuan_hetero-convlstm_2018},~,-,-,,-,-,-,-,+,-,+,-,,-,-,,-,black box,-,-,,-,+,No,,Direct,Traffic ,Accident,,,
EP,\cite{xue_spatial_2006},+,+,~,+,-,-,-,+,+,~,~,-,,-,-,,-,white box,-,-,-,-,+,No,,Direct,Criminality,,,,
EP,\cite{kaveh_new_2020} ,~,+,-,,-,-,-,-,+,-,~,-,,-,-,,-,black box,-,-,,-,~,No,,Direct,Weather,,,,
EP,\cite{liu_multi-channel_2022},+,-,-,,-,-,-,-,-,-,~,-,,-,-,,-,black box,-,-,,-,+,No,,Direct,Healthcare,,,,
EP,\cite{taghizadegan_obstructive_2021} ,~,-,-,,-,-,-,-,-,-,+,-,,-,-,,-,black box,-,-,,-,~,No,,Indirect,Healthcare,,,,
EPS,\cite{zhao_hierarchical_2016},~,-,-,,-,-,-,+,-,-,~,-,,-,-,,-,white box,-,-,,+,+,Yes,,Direct,Social,Unrest,Healthcare,,
EPS,\cite{hughes_improved_2002},~,-,-,,-,-,-,+,-,-,+,-,,-,-,,-,white box,-,-,,~,~,No,,Direct,IT hardware,,,,
EPS,\cite{gao_incomplete_2019},+,-,-,,-,-,+,-,+,-,~,-,,-,-,,-,black box,-,-,,+,+,No,,Direct,Social,Environment,,,
EPS,\cite{gao_incomplete_2018},+,-,-,,-,-,+,+,+,-,~,-,,-,-,,-,white box,-,-,,+,+,No,,Direct,Social,Environment,,,
EPS,\cite{wang_incomplete_2018},~,-,-,,-,-,+,+,-,-,~,-,,-,-,,-,white box,-,-,,+,-,No,,Direct,Social,Political,,,
EPS,\cite{letham_interpretable_2015},+,+,-,,-,-,+,+,+,+,~,+,,-,-,,-,white box,-,-,,-,+,Yes,,Direct,Healthcare,,,,
EPS,\cite{dempsey_isurvive_2017},+,+,-,,-,-,-,+,+,-,~,+,,-,-,,-,white box,-,-,,+,+,No,,Direct,Healthcare,,,,
EPS,\cite{radinsky_learning_2012},+,-,-,,+,-,-,+,+,-,+,-,,-,+,,+,white box,+,-,,-,+,No,,Direct,Social,,,,
EPS,\cite{susto_machine_2015},~,-,-,,-,-,-,+,-,-,~,-,,-,-,,-,white box,-,-,,-,+,No,,Direct,CPS / Manufacturing,,,,
EPS,\cite{huang_mist_2019} ,+,+,+,,-,-,-,-,+,-,~,-,,-,-,,-,black box,-,-,,-,-,No,,Direct,Criminality,,,,
EPS,\cite{lin_mm-pred_2019},+,-,+,,+,~,-,~,-,-,~,-,,-,-,,-,black box,-,-,,-,+,No,,Indirect,Business processes,BPI,,,
EPS,\cite{oki_mobile_2018},~,~,+,,-,-,-,-,-,-,~,-,,-,-,,-,black box,-,-,,-,+,No,,Direct,Mobile infrastructure,,,,
EPS,\cite{zhao_multi-resolution_2016},~,-,-,,+,-,-,+,-,-,~,-,,-,-,,-,white box,-,-,,+,+,No,,Direct,Social,Unrest,Healthcare,,
EPS,\cite{yi_neural_2019},~,+,-,,-,-,-,-,-,-,~,-,,-,-,,-,black box,-,-,,-,+,No,,Direct,Criminality,,,,
EPS,\cite{dami_news_2018},+,+,-,,+,~,-,+,+,~,+,-,,-,-,,-,white box,+,-,,~,+,No,,Direct,News,,,,
EPS,\cite{ding_online_2018},+,+,-,,-,-,~,+,+,~,+,-,,-,-,,-,white box,+,-,,-,+,No,,Indirect,CPS / Manufacturing,,,,
EPS,\cite{chen_pcnn_2018} ,~,-,-,,-,-,-,-,+,-,+,-,,-,-,,-,black box,-,-,,-,-,No,,Indirect,Traffic,,,,
EPS,\cite{vilalta_predicting_2002},~,+,-,,-,-,+,+,-,-,~,-,,-,-,,-,white box,-,-,,-,-,No,,Direct,IT Infrastructure,,,,
EPS,\cite{decroos_predicting_2017} ,~,+,-,,-,-,-,+,-,-,+,-,,-,-,,-,white box,-,-,,-,+,No,,Indirect,Social,Sports,,,
EPS,\cite{vahedian_predicting_2019},~,-,-,,-,-,+,-,+,-,~,-,,-,-,,-,both,-,-,,-,+,No,,Direct,Social,Dispersal ,,,
EPS,\cite{zhong_prediction_2019},~,-,-,,-,-,-,+,+,-,+,-,,-,-,,-,white box,-,-,,-,+,No,,Direct,Weather,,,,
EPS,\cite{ertekin_reactive_2015},~,+,+,,-,-,-,+,+,-,~,-,,-,-,,-,white box,+,-,,-,+,No,,Direct,Electrical Infrastructure,,,,
EPS,\cite{brandt_real_2011},~,+,+,,-,-,+,~,+,-,~,-,,-,-,,-,white box,+,-,,-,+,No,,Direct,Social,Conflict,,,
EPS,\cite{zhao_simnest_2015},+,-,+,,-,-,-,~,+,-,+,-,,-,-,,-,black box,+,-,,-,+,No,,Direct,Healthcare,,,,
EPS,\cite{jans_skip_2012},+,+,-,,-,-,-,+,+,-,~,-,,-,-,,-,white box,-,-,,-,~,No,,Direct,News,,,,
EPS,\cite{zhao_spatial_2019},~,-,-,,-,-,-,+,+,~,~,-,,-,-,,-,white box,-,-,,~,+,No,,Indirect,Healthcare,Environment,Traffic,,
EPS,\cite{zhao_spatial_2017},,,,,,,,,,,,,,,,,,,,,,,,,Invited paper \cite{zhao_multi-resolution_2016} see there,,,,,,
EPS,\cite{kupilik_spatio-temporal_2018},,,,,,,,,,,,,,,,,,,,,,,,,"No prediction, only application of Gaussian processes to violent event prediction",,,,,,
EPS,\cite{zhao_spatiotemporal_2015},~,-,+,,-,-,-,-,-,-,+,-,,-,-,,-,black box,-,-,,+,+,No,,Direct,Social,Healthcare,,,
EPS,\cite{ning_staple_2018} ,~,+,+,,-,-,-,+,+,+,+,-,,-,~,,~,white box,+,-,,-,+,No,,Direct,News,,,,
EPS,\cite{laxman_stream_2008} ,+,+,+,,-,-,-,+,-,-,+,-,,-,-,,-,black box,-,-,,-,-,No,,Indirect,Customer behavior,,,,
EPS,\cite{mirtaheri_tensor-based_2019} ,,,,,,,,,,,,,,,,,,,,,,,,,"No prediction, only tensor-based application ",,,,,,
EPS,\cite{li_wisdom_2016},+,-,+,,-,-,-,-,+,-,+,-,,-,-,,-,black box,-,-,,-,+,No,,Direct,Healthcare,,,,
EPS,\cite{kattan_time-series_2015},~,+,-,,-,-,+,+,-,-,~,+,,-,-,,-,white box,-,-,,-,+,No,,Indirect,Social,,,,
EPS,\cite{hashimoto_toward_2014} ,,,,,,,,,,,,,,,,,,,,,,,,,"No prediction, event extraction",,,,,,
EPS,\cite{di_traffic_2019},~,-,-,,-,-,-,-,+,-,+,-,,-,-,,-,black box,-,-,,-,+,No,,Direct,Traffic,,,,
EPS,\cite{compton_using_2014},~,-,-,,-,-,-,+,+,-,+,-,,-,-,,-,white box,-,-,,-,+,No,,Direct,Social,Unrest,,,
EPS,\cite{wang_using_2015},~,-,-,,-,-,-,+,-,-,~,-,,-,-,,-,white box,-,-,,-,+,No,,Direct,Social,,,,
EPS,\cite{hu_what_2017},~,-,-,,-,-,-,-,+,-,~,-,,-,-,,-,black box,-,-,,-,+,No,,Direct,News,,,,
EPS,\cite{pirajan_towards_2019},+,-,-,,-,-,-,-,+,-,~,-,,-,-,,-,black box,-,-,,-,+,No,,Direct,Criminality,,,,
,,,,,,,,,,,,,,,,,,,,,,,,,,88,,,,,,
