Publication&Class& 1.1 & 1.2 & 1.3 & 1.4 & 1.5 & 1.6 & 1.7 & 2 & 3.1 & 3.2 & 4 & 5 & 6 & 7 & 9.1 & 9.2 & 9.3 & 10 & 12 & 13 & 14 & 15 & 15 & Code

    \cite{sindhu_neuro-genetic_2006}  & Time, Discrete, Inferential, Neural network, Supervised, Neuro-genetic ensemble \cite{sindhu_neuro-genetic_2006}, Process-agnostic input, Global & + & - & - & + & - & - & -& - &- & - & - & - &  & ? &  -&  &-  & Black box &  -& - & - & - & - & No
    \cite{zhou_novel_2013}                 & Time, Discrete, Inferential, Combination Markov-based, Supervised, Stream-based k-means clustering \cite{aggarwal2003framework} / aggregate ensemble \cite{zhang2011robust} & &  &  & &  &  & &  &  &  &  &  & &  &  &  &  &  &  &  &  & & No &
    \cite{tan_adaptive_2010}                 &  Time, Discrete, Inferential, Association-based, Unsupervised, anomaly predicates \cite{joshi2005detecting} / stream-based decision tree \cite{gu2008toward} / two-stage hierarchical clustering \cite{chen2008stop} / bayesian context identification \cite{tan_adaptive_2010}   &  &  &  & &  &  & &  &  &  &  &  & &  &  &  &  &  &  &  &  & & No &
     \cite{wang_anomaly_2019}                & Time, Discrete, Inferential, Combination Regression / Distance-based, Supervised, Random forest regression \cite{segal2004machine} / Rule stacking \cite{sulzmann2011rule}  &  &  &  & &  &  & &  &  &  &  &  & &  &  &  &  &  &  &  &  & & &
     \cite{lindemann_anomaly_2020}            & Time, Discrete, Hybrid, Hybrid / Neural network, Supervised, Finite Element Methods \cite{kang1996fem} / Backpropagation Through Time \cite{williams1995gradient} & &  &  & &  &  & &  &  &  &  &  & &  &  &  &  &  &  &  &  & &  &
      \cite{li_anomaly_2022}              & Time, Discrete, Inferential,  Regression, Supervised, ? &  &  &  & &  &  & &  &  &  &  &  & &  &  &  &  &  &  &  &  & & &
      \cite{kitagawa_anomaly_2019}              &  Time, Occurrence, Inferential, Distance-based, Supervised, k-means++ \cite{arthur2006k} / online k-means \cite{borodin2005online} / proposed k-means \cite{kitagawa_anomaly_2019} &  &  &  & &  &  & &  &  &  &  &  & &  &  &  &  &  &  &  &  & & &
       \cite{hadj-kacem_anomaly_2020}           & Time, Discrete, Inferential, Regression, Supervised, Least squares \cite{goldberger1964classical}  &  &  &  & &  &  & &  &  &  &  &  & &  &  &  &  &  &  &  &  & & &
        \cite{celenk_anomaly_2008}            &  Time, Discrete, Inferential, Regression, Supervised, Yule-Walker regression \cite{porat2008digital}  &  &  &  & &  &  & &  &  &  &  &  & &  &  &  &  &  &  &  &  & & &
            \cite{liu_deep_2020}        & Time, Occurrence, Inferential, Neural network, Supervised, ? &  &  &  & &  &  & &  &  &  &  &  & &  &  &  &  &  &  &  &  & & &
            \cite{xie_domain_2022}        &  Time, Occurrence, Inferential, Neural network, Supervised, Adversial Transfer Learning \cite{saito_maximum_2018}&  &  &  & &  &  & &  &  &  &  &  & &  &  &  &  &  &  &  &  & & &
             \cite{jiang_ensemble_2018}       & Time, Discrete, Inferential, Combination, Supervised, ?  &  &  &  & &  &  & &  &  &  &  &  & &  &  &  &  &  &  &  &  & & &
             \cite{yang_fedadmp_2021}       & Time and Location, Discrete and Raster-based, Inferential, Neural network, Supervised, Stochastic gradient descent \cite{shokri_privacy-preserving_2015}  &  &  &  & &  &  & &  &  &  &  &  & &  &  &  &  &  &  &  &  & & &
             \cite{mehr_graph_2020}       & Time, Discrete, Inferential, Association-based, Supervised, node2vec \cite{grover_node2vec_2016}, ?  &  &  &  & &  &  & &  &  &  &  &  & &  &  &  &  &  &  &  &  & & &
               \cite{khan_hml-ids_2019}     & Not extendable to prediction  &  &  &  & &  &  & &  &  &  &  &  & &  &  &  &  &  &  &  &  & & &
                \cite{langone_interpretable_2020}    & Time, Discrete, Inferential, Regression, Supervised, Efficient logistic regression \cite{lee2006efficient} / elastic net regularization \cite{zou_regularization_2005}   &  &  &  & &  &  & &  &  &  &  &  & &  &  &  &  &  &  &  &  & & &
                \cite{asres_long_2022}    & Time, Discrete, Inferential, Neural network, Unsupervised, Adam optimizer \cite{kingma2014adam} from PyTorch / super-convergence cyclic learning rate scheduling mechanism \cite{smith_super-convergence_2019} / cyclic annealing method \cite{fu_cyclical_2019} &  &  &  & &  &  & &  &  &  &  &  & &  &  &  &  &  &  &  &  & & &
                \cite{diraco_machine_2023}    & Time, Occurrence, Inferential, Distance-based, Supervised, ?  &  &  &  & &  &  & &  &  &  &  &  & &  &  &  &  &  &  &  &  & & &
                \cite{liu_mining_2021}    & Time, Occurrence, Inferential, Association-based, Supervised, FCP-Mining / Service event routing \cite{liu_mining_2021}   &  &  &  & &  &  & &  &  &  &  &  & &  &  &  &  &  &  &  &  & & &
                  \cite{li_network_2022}  & Time, Discrete, Inferential, Neural network, Supervised, ? &  &  &  & &  &  & &  &  &  &  &  & &  &  &  &  &  &  &  &  & & &
                  \cite{gu_online_2009}  & Time, Discrete, Inferential, Combination Markov-based / Bayesian-based, Supervised, Monte Carlo \cite{chib2001markov} / Naive Bayes \cite{langley1992analysis} &  &  &  & &  &  & &  &  &  &  &  & &  &  &  &  &  &  &  &  & & &
                  \cite{diallo_preemptive_2021}  & Time, Discrete, Inferential, Markov-based, Reinforcement, Time Difference \cite{sutton1998temporal}/ Q-Learning \cite{watkins1992q} &  &  &  & &  &  & &  &  &  &  &  & &  &  &  &  &  &  &  &  & & &
                  \cite{wang_sensor_2018}  & Time, Discrete, Inferential, Association-based, Supervised, ?  &  &  &  & &  &  & &  &  &  &  &  & &  &  &  &  &  &  &  &  & & &
                  \cite{hong_entropy_2016} &  Time, Discrete, Inferential, Distance-based, Unsupervised, ? &  &  &  & &  &  & &  &  &  &  &  & &  &  &  &  &  &  &  &  & & &
                  \cite{huang_using_2016} & Time, Discrete, Inferential, Neural network, Supervised, Stochastic gradient descent \cite{tang_document_2015}  &  &  &  & &  &  & &  &  &  &  &  & &  &  &  &  &  &  &  &  & & &
                  \cite{bouzar-benlabiod_variational_2019} & Time, Discrete, Inferential, Combination Neural network / Distance-based, Supervised, ?  &  &  &  & &  &  & &  &  &  &  &  & &  &  &  &  &  &  &  &  & & &
                  \cite{duan_metric-learning-based_2020} & Time, Discrete, Inferential, Distance-based / ?, Supervised, Metric-learning-based LSSVM \cite{duan_metric-learning-based_2020}  &  &  &  & &  &  & &  &  &  &  &  & &  &  &  &  &  &  &  &  & & &
                  \cite{ding_novel_2013} & Time, Discrete, Generative, Discrete state system, Supervised, Proposed algorithms \cite{ding_novel_2013}, Process-agnostic input, Global &  &  &  & &  &  & &  &  &  &  &  & &  &  &  &  &  &  &  &  & & &
                  \cite{marquez-chamorro_context-aware_2020} &  Time, Continuous, Inferential, Association-based, Supervised, Random forest \cite{breiman_random_2001} / XGBoost \cite{chen_xgboost_2016} &  &  &  & &  &  & &  &  &  &  &  & &  &  &  &  &  &  &  &  & & &
                  \cite{ren_mctan_2022} & Time, Discrete, Inferential, Neural network, Supervised, Adam optimizer \cite{kingma2014adam} from PyTorch &  &  &  & &  &  & &  &  &  &  &  & &  &  &  &  &  &  &  &  & & &
                  \cite{antunes_bayesian_2003} & Time, Continuous, Generative, Continuous state system, Analytical, Posterior probability calculation \cite{antunes_bayesian_2003}   &  &  &  & &  &  & &  &  &  &  &  & &  &  &  &  &  &  &  &  & & &
                  \cite{fard_early-stage_2016} & Time, Discrete, Inferential, Bayesian-based, Unsupervised, Search-and-score based Hill-climbing with weight-adapted minimum description length scoring \cite{lam_learning_1994,heckerman_learning_1995,friedman_bayesian_1997}  &  &  &  & &  &  & &  &  &  &  &  & &  &  &  &  &  &  &  &  & & &
                  \cite{le_hybrid_2017} & Semantic, Categorical, Inferential, Combination Markov-based / Distance-based, Supervised, Markov model learning \cite{papoulis1965probability} / Proposed \cite{le_hybrid_2017} / kNN \cite{berry2004data} &  &  &  & &  &  & &  &  &  &  &  & &  &  &  &  &  &  &  &  & & &
                  \cite{mehdiyev_multi-stage_2017} & Semantic, Categorical, Inferential, Neural network, Supervised, H2O.ai \cite{candel2016deep} / ADADELTA \cite{zeiler_adadelta_2012} &  &  &  & &  &  & &  &  &  &  &  & &  &  &  &  &  &  &  &  & & &
                  \cite{liu_new_2004} & Time and Location, Continuous and Point-based, Generative, Continuous state system, Supervised, Hierarchical clustering \cite{mojena_hierarchical_1977} / expectation maximization \cite{dempster_maximum_1977} / filtered kernel estimators \cite{marchette_filtered_1996} / Fiksel \cite{fiksel_simple_1984} / Proposed \cite{liu_new_2004}, Process-agnostic input, Global &  &  &  & &  &  & &  &  &  &  &  & &  &  &  &  &  &  &  &  & & &
                  \cite{tsai_scenario-aware_2022} & Time / Location and Semantic, Discrete / Raster-based / Categorical, Hybrid, Discrete state systems / Neural network, Supervised, ?  &  &  &  & &  &  & &  &  &  &  &  & &  &  &  &  &  &  &  &  & & &
                  \cite{kim_study_2014} &  Semantic, Categorical, Inferential, Association-based, Supervised, ? &  &  &  & &  &  & &  &  &  &  &  & &  &  &  &  &  &  &  &  & & &
                  \cite{cho_tree-based_2008} & Time and Semantic, Discrete and Categorical, Inferential, Association-based / Association-based, Supervised, No learning  &  &  &  & &  &  & &  &  &  &  &  & &  &  &  &  &  &  &  &  & & &
                  \cite{yu_abnormal_2021} & Overall no prediction problem. Prediction component: Time, Discrete, Inferential, Neural network, Semi-supervised, WGAN-GP \cite{gulrajani_improved_2017}  &  &  &  & &  &  & &  &  &  &  &  & &  &  &  &  &  &  &  &  & & &
                  \cite{gainaru_adaptive_2011} & Time, Discrete, Inferential, Association-based, Supervised, Adapted Apriori \cite{gainaru_adaptive_2011}   &  &  &  & &  &  & &  &  &  &  &  & &  &  &  &  &  &  &  &  & & &
                  \cite{aharon_adaptive_2017} & No prediction method   &  &  &  & &  &  & &  &  &  &  &  & &  &  &  &  &  &  &  &  & & &
                  \cite{cortez_architecture_2018} & Time, Discrete, Inferential, Neural network, Supervised, Adam optimizer \cite{kingma2014adam}  &  &  &  & &  &  & &  &  &  &  &  & &  &  &  &  &  &  &  &  & & &
                  \cite{tama_empirical_2020} & Most likely a duplicate, but definitely survey for event prediction --> moved  &  &  &  & &  &  & &  &  &  &  &  & &  &  &  &  &  &  &  &  & & &
                  \cite{ngaffo_event_2019} & Time, Occurrence, Inferential, Distance-based, Supervised, ?  &  &  &  & &  &  & &  &  &  &  &  & &  &  &  &  &  &  &  &  & & &
                  \cite{zhang_analogous_2020} & Semantic, Categorical, Hybrid, Discrete state systems, Analytical, Event conceptualization \cite{zhang_analogous_2020}    &  &  &  & &  &  & &  &  &  &  &  & &  &  &  &  &  &  &  &  & & &
                  \cite{duenas_applying_2018} & Time, Discrete, Inferential, Association-based, Supervised, Apache Spark MLlib \cite{meng2016mllib}   &  &  &  & &  &  & &  &  &  &  &  & &  &  &  &  &  &  &  &  & & &
                  \cite{shin_autoencoder-based_2019} & Time, Occurrence, Inferential, Neural network, Semi-supervised, Positive-unlabeled learning \cite{elkan_learning_2008,kiryo_positive-unlabeled_2017} &  &  &  & &  &  & &  &  &  &  &  & &  &  &  &  &  &  &  &  & & &
                  \cite{cheon_bayesian_2009} & Time, Discrete, Hybrid, Discrete state system / Bayesian-based, Analytical / Supervised, Proposed \cite{cheon_bayesian_2009} &  &  &  & &  &  & &  &  &  &  &  & &  &  &  &  &  &  &  &  & & &
                  \cite{sahoh_beyond_2021} & No prediction, but rather very interesting and useful concept on how to make events and prediction results understandable.  &  &  &  & &  &  & &  &  &  &  &  & &  &  &  &  &  &  &  &  & & &
                  \cite{zhou_big_2022} & No prediction and due to incomprehensibility not able to assess extension to prediction.   &  &  &  & &  &  & &  &  &  &  &  & &  &  &  &  &  &  &  &  & & &
                  \cite{rico_business_2021} & Time and Semantic, Continuous and Categorical, Inferential, Combination Distance-based / Association-based, Analytical, Proposed \cite{rico_business_2021} &  &  &  & &  &  & &  &  &  &  &  & &  &  &  &  &  &  &  &  & & &
                  \cite{lajevardi_combination_2008} & Time, Discrete, Inferential, Association-based, Supervised, C5 \cite{delen_analysis_2009}  &  &  &  & &  &  & &  &  &  &  &  & &  &  &  &  &  &  &  &  & & &
                  \cite{alevizos_complex_2022} &  Time, Discrete, Inferential, Markov-based, Supervised, Learn-PSA \cite{ron_power_1996} / Markov chain embedding \cite{fu2003distribution,alevizos_complex_2022}  &  &  & &  &  & &  &  &  &  &  & &  &  &  &  &  &  &  &  & & &
                  \cite{liu_constructing_2021} & Time, Occurrence, Inferential, Neural network, Supervised, DeepWalk \cite{perozzi_deepwalk_2014} &  &  &  &  & &  &  & &  &  &  &  &  & &  &  &  &  &  &  &  &  & &
                  \cite{okawa_context-aware_2022} & Time and Location, Discrete and Point-based, Inferential, Neural network, Supervised, Adam optimizer \cite{kingma2014adam} &   &  &  &  & &  &  & &  &  &  &  &  & &  &  &  &  &  &  &  &  & &
                  \cite{sahoo_critical_2003} & Time, Discrete, Inferential, Combination Regression / Association-based / Bayesian-based, Supervised, Time series forecasting \cite{brockwell2002introduction} / Bayes network \cite{murphy2001active} &   &  &  &  & &  &  &   &  &  &  &  & &  &  &  &  &  &  &  &  & & &
                  \cite{li_data_2020} & Time, Discrete, Inferential, Association-based, Supervised, Proposed \cite{li_data_2020}  &  &  &  & &  &  & &  &  &  &  &  & &  &  &  &  &  &  &  &  & & &
                  \cite{zhang_deep_2017} & Time, Occurrence, Inferential, Neural network, Supervised, Adam optimizer \cite{kingma2014adam}, Implicit   &  &  &  & &  &  & &  &  &  &  &  & &  &  &  &  &  &  &  &  & & &
                  \cite{okawa_deep_2019} & see okawa above \cite{okawa_context-aware_2022} &   &  &  &  & &  &  & &  &  &  &  &  & &  &  &  &  &  &  &  &  &   &
                  \cite{fahed_distant_2020} & Semantic, Categorical, Inferential, Association-based, Supervised, Distant-SequentialRules (D-SR) \cite{fahed_distant_2020}, Explicit / Implicit &  &  &  & &  &  & &  &  &  &  &  & &  &  &  &  &  &  &  &  & & &
                  \cite{kiyomaru_diversity-aware_2019} & Semantic, Categorical, Inferential, Neural network, Supervised, Adam optimizer \cite{kingma2014adam}  &  &  &  & &  &  & &  &  &  &  &  & &  &  &  &  &  &  &  &  & & &
                  \cite{aggarwal_dynamic_2020} & Semantic, Categorical, Inferential, Combination Neural network / Distance-based, Supervised / Unsupervised, Adam optimizer \cite{kingma2014adam}  &  &  &  & &  &  & &  &  &  &  &  & &  &  &  &  &  &  &  &  & & &
                  \cite{luo_dynamic_2020} & Semantic, Categorical, Hybrid, Discrete state system / Neural network, Supervised, Adam optimizer \cite{kingma2014adam}  &  &  &  & &  &  & &  &  &  &  &  & &  &  &  &  &  &  &  &  & & &
                  \cite{dami_efficient_2018} & Not assessed due to low quality and too short presentation  &  &  &  & &  &  & &  &  &  &  &  & &  &  &  &  &  &  &  &  & & &
                  \cite{yuan_event_2011} & Time, Continuous, Hybrid, Continuous state system / Combination Regression / Association-based, Supervised, Partial Maximum Likelihood \cite{klein_survival_2003} / Adapted WINEPI \cite{li_failure_2007,mannila_discovery_1997}  &  &  &  & &  &  & &  &  &  &  &  & &  &  &  &  &  &  &  &  & & &
                  \cite{bekeneva_event_2019} & Time, Occurrence, Inferential, Association-based, Supervised, FP-Growth \cite{han_mining_2000}  &  &  &  & &  &  & &  &  &  &  &  & &  &  &  &  &  &  &  &  & & &
                   \cite{dourado_event_2019} & no prediction, only detection &  &  &  & &  &  & &  &  &  &  &  & &  &  &  &  &  &  &  &  & & &
                  \cite{karakostas_event_2016} & Time, Occurrence, Inferential, Bayesian-based, Supervised, Analytical, Naive Bayes \cite{langley1992analysis}   &  &  &  & &  &  & &  &  &  &  &  & &  &  &  &  &  &  &  &  & & &
                  \cite{fu_event_2021} & Time, Occurrence, Inferential, Neural network, Supervised, ?   &  &  &  & &  &  & &  &  &  &  &  & &  &  &  &  &  &  &  &  & & &
                  \cite{fu_exploring_2007} & Time and Location, Discrete and Raster-based, Hybrid, Continuous state system / Neural network, Supervised, Objective Bayesian Analysis \cite{berger_objective_2001} / Weka \cite{witten_weka_1999}   &  &  &  & &  &  & &  &  &  &  &  & &  &  &  &  &  &  &  &  & & &
                  \cite{vrignat_failure_2015} & Time, Discrete, Inferential, Markov-based, Supervised, Baum-Welch \cite{baum1972inequality}  &  &  &  & &  &  & &  &  &  &  &  & &  &  &  &  &  &  &  &  & & &
                  \cite{li_failure_2007} & Time, Continuous, Hybrid, Continuous state system / Combination Regression + Association-based, Supervised, Partial Maximum Likelihood \cite{klein_survival_2003} / Adapted WINEPI \cite{li_failure_2007,mannila_discovery_1997}    &  &   & &  &  & &  &  &  &  &  & &  &  &  &  &  &  &  &  & & &
                  \cite{su_hierarchical_2020} & Semantic, Categorical, Inferential, Neural network, Supervised, Backpropagation Through Time \cite{williams1995gradient} &  &  &  & &  &  & &  &  &  &  &  & &  &  &  &  &  &  &  &  & & &
                  \cite{zhao_hierarchical_2021} & Time, Discrete, Inferential, Neural network, Supervised, AdamW optimizer \cite{loshchilov_decoupled_2019} / SGD \cite{sutskever2013importance}  &  &  &  & &  &  & &  &  &  &  &  & &  &  &  &  &  &  &  &  & & &
                  \cite{coniglio_infrequent_2021} & Time, Discrete, Inferential, Combination, Supervised, scikit-learn \cite{pedregosa2011scikit}   &  &  &  & &  &  & &  &  &  &  &  & &  &  &  &  &  &  &  &  & & &
                  \cite{wu_joint_2022} & Time and Semantic, Continuous and Categorical, Inferential, Neural network, Supervised, ?   &  &  &  & &  &  & &  &  &  &  &  & &  &  &  &  &  &  &  &  & & &
                  \cite{rudin_learning_2013} & Time, Occurrence, Inferential, Association-based, Supervised, Various proposed \cite{rudin_learning_2013}   &  &  &  & &  &  & &  &  &  &  &  & &  &  &  &  &  &  &  &  & & &
                  \cite{zhu_link_2022} & Time and Semantic, Continuous and Categorical, Inferential, Neural network, Supervised, SGD \cite{sutskever2013importance}  &  &  &  & &  &  & &  &  &  &  &  & &  & &  &  &  &  &  &  & & &
                  \cite{zhou_multi-task_2021} & Semantic, Categorical, Inferential, Neural network, Supervised, Adam optimizer \cite{kingma2014adam}  &  &  &  & &  &  & &  &  &  &  &  & &  &  &  &  &  &  &  &  & & &
                  \cite{jahani_multioutput_2021} & Time, Occurrence, Hybrid, Continuous state system / Regression, Supervised, Variational Inference \cite{lloyd_variational_2015,snelson_sparse_2005,titsias_variational_2009} with multivariate optimization using Nelder-Mead simplex \cite{olsson_nelder-mead_1975}, conjugate gradient \cite{hestenes_methods_1952} or Adam optimizer \cite{kingma2014adam}   &  &  &  & &  &  & &  &  &  &  &  & &  &  &  &  &  &  &  &  & & &
                  \cite{chang_naive_2019} & No prediction  &  &  &  & &  &  & &  &  &  &  &  & &  &  &  &  &  &  &  &  & & &
                  \cite{cho_-line_2011} & Time and Semantic, Discrete and Categorical, Inferential, Association-based / Association-based, Supervised, No learning  &  &  &  & &  &  & &  &  &  &  &  & &  &  &  &  &  &  &  &  & & &
                  \cite{betskov_possibility_2019} & No prediction   &  &  &  & &  &  & &  &  &  &  &  & &  &  &  &  &  &  &  &  & & &
                  \cite{casagrande_prediction_2019} & Time and Semantic, Discrete and Categorical, Inferential,  Neural network, Supervised, Adam optimizer \cite{kingma2014adam}   &  &  &  & &  &  & &  &  &  &  &  & &  &  &  &  &  &  &  &  & & &
                  \cite{heinrich_process_2021} & Semantic, Categorical, Inferential, Neural network, Supervised, ?   &  &  &  & &  &  & &  &  &  &  &  & &  &  &  &  &  &  &  &  & & &
                  \cite{fullop_real_2012} & Time and Semantic, Continuous and Categorical, Inferential, Combination / Bayesian-based, Supervised, DBScan \cite{ester1996density}  &  &  &  & &  &  & &  &  &  &  &  & &  &  &  &  &  &  &  &  & & &
                  \cite{li_reflection_2014} & Time, Occurrence, Inferential, Combination, Supervised, Online Passive-aggressive \cite{crammer2006online}  &  &  &  & &  &  & \cite{yan_research_2004} & Time, Discrete, Neural network, Supervised, ?  &  &  &  &  & &  &  &  &  &  &  &  &  & & &
                  \cite{soleimani_scalable_2018} & Time, Continuous, Hybrid, Continuous state system / Regression, Supervised, L-BFGS-B \cite{byrd_limited_1995} /  TensorFlow \cite{abadi_tensorflow_2016} / GPFlow \cite{matthews_gpflow_2017}   &  &  &  & &  &  & &  &  &  &  &  & &  &  &  &  &  &  &  &  & & &
                  \cite{casagrande_sensor_2018} &  Time, Occurrence, Inferential, Neural network, Supervised, ?  &  &  &  & &  &  & &  &  &  &  &  & &  &  &  &  &  &  &  &  & & &
                  \cite{letham_sequential_2013} & Time, Occurrence, Inferential, Bayesian-based, Supervised, One-stage and ML-constrained \cite{letham_sequential_2013} with convex optimization \cite{bertsekas1995nonlinear}  &  &  &  & &  &  & &  &  &  &  &  & &  &  &  &  &  &  &  &  & & &
                  \cite{rudin_sequential_2011} & Time, Occurrence, Inferential, Association-based, Supervised, Various proposed \cite{rudin_sequential_2011}  &  &  &  & &  &  & &  &  &  &  &  & &  &  &  &  &  &  &  &  & & &
                  \cite{mcginty_spatial_2009} & Time and Location, Occurrence and Raster-based, Inferential, Regression, Supervised, ?, Process-agnostic input   &  &  &  & &  &  & &  &  &  &  &  & &  &  &  &  &  &  &  &  & & &
                  \cite{hu_time-series_2021} & Time, Discrete, Inferential, Neural network, Supervised, Adam optimizer \cite{kingma2014adam}, Process-agnostic input   &  &  &  & &  &  & &  &  &  &  &  & &  &  &  &  &  &  &  &  & & &
                  \cite{xu_training_2022} & No prediction   &  &  &  & &  &  & &  &  &  &  &  & &  &  &  &  &  &  &  &  & & &
                  \cite{aggarwal_two_2018} & Time, Discrete, Hybrid, Continuous state system / Neural network, Supervised, ?, Process-agnostic input   &  &  &  & &  &  & &  &  &  &  &  & &  &  &  &  &  &  &  &  & & &
                  \cite{bilos_uncertainty_2019} & Time, Continuous, Hybrid, Continuous state system / Regression, Supervised, Adam optimizer \cite{kingma2014adam}, Process-aware input  &  &  &  & &  &  & &  &  &  &  &  & &  &  &  &  &  &  &  &  & & &
                  \cite{fox_using_2012} & Time and Location, Discrete and Raster-based, Hybrid, Hybrid / Regression, Supervised, ?, Process-agnostic input   &  &  &  & &  &  & &  &  &  &  &  & &  &  &  &  &  &  &  &  & & &
                  \cite{yang_web-log_2002} & Time, Discrete, Inferential, Association-based, Supervised, Extended CBA-RG \cite{liu_integrating_1998,yang_web-log_2002}, Process-aware input   &  &  &  & &  &  & &  &  &  &  &  & &  &  &  &  &  &  &  &  & & &
                  \cite{nakajima_prototype_2017} & Semantic, Aggregate, Inferential, Association-based, Supervised, ?, Process-agnostic input  &  &  &  & &  &  & &  &  &  &  &  & &  &  &  &  &  &  &  &  & & &
                  \cite{li_constructing_2018} & Semantic, Aggregate, Inferential, Neural network, Supervised, ?, Process-agnostic input   &  &  &  & &  &  & &  &  &  &  &  & &  &  &  &  &  &  &  &  & & &
                  \cite{yu_dram_2019} & Semantic, Aggregate, Inferential, Neural network, Reinforcement, ?, Process-agnostic input   &  &  &  & &  &  & &  &  &  &  &  & &  &  &  &  &  &  &  &  & & &
                  \cite{lei_event_2019} & Semantic, Aggregate, Generative, Discrete state system, Unsupervised, ?, Process-agnostic input   &  &  &  & &  &  & &  &  &  &  &  & &  &  &  &  &  &  &  &  & & &
                  \cite{amodeo_hybrid_2011} & Semantic, Aggregate, Inferential, Regression, Supervised, ?, Process-agnostic input   &  &  &  & &  &  & &  &  &  &  &  & &  &  &  &  &  &  &  &  & & &
                  \cite{bai_integrating_2021} & Semantic, Aggregate, Inferential, Neural network, Supervised, Adam optimizer \cite{kingma2014adam}, Process-agnostic input   &  &  &  & &  &  & &  &  &  &  &  & &  &  &  &  &  &  &  &  & & &
                  \cite{wang_integrating_2017} & Semantic, Aggregate, Inferential, Neural network, Supervised, AdaGrad \cite{duchi2011adaptive}, Process-agnostic input    &  &  &  & &  &  & &  &  &  &  &  & &  &  &  &  &  &  &  &  & & &
                  \cite{zhang_introducing_2022} & Semantic, Aggregate, Inferential, Neural network, Supervised, ?, Process-agnostic input &   &  &  &  & &  &  & &  &  &  &  &  & &  &  &  &  &  &  &  &  & &
                  \cite{wang_multi-level_2021} & Semantic, Aggregate, Inferential, Neural network, Supervised, RMSProp \cite{tieleman2012lecture}, Process-agnostic input   &  &  &  & &  &  & &  &  &  &  &  & &  &  &  &  &  &  &  &  & & &
                  \cite{yang_nargnn_2020} & No prediction   &  &  &  & &  &  & &  &  &  &  &  & &  &  &  &  &  &  &  &  & & &
                  \cite{huang_script_2021} & Semantic, Aggregate, Inferential, Neural network, Supervised, Adam optimizer \cite{kingma2014adam}, Process-agnostic input  &  &  &  & &  &  & &  &  &  &  &  & &  &  &  &  &  &  &  &  & & &
                  \cite{dai_quoc_nguyen_sequence_2017} & Cannot assess due to lack of information   &  &  &  & &  &  & &  &  &  &  &  & &  &  &  &  &  &  &  &  & & &
                  \cite{li_future_2021} & Semantic, Categorical, Hybrid, Discrete state system / Neural network, Supervised, ?, Process-agnostic input   &  &  &  & &  &  & &  &  &  &  &  & &  &  &  &  &  &  &  &  & & &
                  \cite{liu_stacking_2022} & Time, Continuous, Inferential, Neural network, Supervised / Transfer, ?, Process-agnostic input   &  &  &  & &  &  & &  &  &  &  &  & &  &  &  &  &  &  &  &  & & &
                  \cite{lu_business_2022} & Time, Occurrence, Inferential, Neural network, Supervised, ?, Process-aware input   &  &  &  & &  &  & &  &  &  &  &  & &  &  &  &  &  &  &  &  & & &
                  \cite{wang_conformance-oriented_2022} & Time, Occurrence, Inferential, Neural network, Supervised, ?, Process-aware input   &  &  &  & &  &  & &  &  &  &  &  & &  &  &  &  &  &  &  &  & & &
                  \cite{alves_context-aware_2022} & Time, Continuous, Hybrid, Discrete state system / Neural network, Supervised, ?, Process-aware input   &  &  &  & &  &  & &  &  &  &  &  & &  &  &  &  &  &  &  &  & & &
                  \cite{zilker_designing_2022} & Semantic, Categorical, Inferential, Neural network, Supervised, NAdam optimizer \cite{dozat2016incorporating}, Process-aware input   &  &  &  & &  &  & &  &  &  &  &  & &  &  &  &  &  &  &  &  & & &
                  \cite{vandenabeele_enhancing_2022} & Time, Continuous, Hybrid, Discrete state system / Regression, Supervised, Inductive miner \cite{leemans_discovering_2014} / Maximum likelihood estimation \cite{richards_method_1961}   &  &  &  & &  &  & &  &  &  &  &  & &  &  &  &  &  &  &  &  & & &
                  \cite{elkhawaga_explainability_2022} & No prediction   &  &  &  & &  &  & &  &  &  &  &  & &  &  &  &  &  &  &  &  & & &
                  \cite{stevens_explainable_2022} & No prediction (model development)    &  &  &  & &  &  & &  &  &  &  &  & &  &  &  &  &  &  &  &  & & &
                  \cite{rui_explainable_2022} & Time, Continuous, Inferential, Neural network, Supervised, Adam optimizer \cite{kingma2014adam}, Process-aware input   &  &  &  & &  &  & &  &  &  &  &  & &  &  &  &  &  &  &  &  & & &
                  \cite{rizzi_explainable_2022} & No prediction (model development) &  &  &  & &  &  & &  &  &  &  &  & &  &  &  &  &  &  &  &  & & &
                  \cite{chiorrini_exploiting_2022} & Semantic, Categorical, Inferential, Neural network, Supervised, Adam optimizer \cite{kingma2014adam}, Process-aware input   &  &  &  & &  &  & &  &  &  &  &  & &  &  &  &  &  &  &  &  & & &
                  \cite{lee_exploring_2022} & Time, Occurrence, Inferential, Association-based, Supervised, RIPPER \cite{cohen1995fast}, Process-aware input   &  &  &  & &  &  & &  &  &  &  &  & &  &  &  &  &  &  &  &  & & &
                  \cite{pasquadibisceglie_fox_2021} & Time, Occurrence, Inferential, Neural network, Supervised, ANFIS \cite{jang_neuro-fuzzy_1995}, Process-aware input   &  &  &  & &  &  & &  &  &  &  &  & &  &  &  &  &  &  &  &  & & &
                  \cite{fernandes_impact_2022} & Time, Continuous, Generative, Discrete state system, Supervised, ?, Process-aware input   &  &  &  & &  &  & &  &  &  &  &  & &  &  &  &  &  &  &  &  & & &
                  \cite{weytjens_learning_2022} & Time, Continuous, Inferential, Neural network, Supervised, Adam optimizer \cite{kingma2014adam} / Monte Carlo approximation \cite{davison1997bootstrap}, Process-aware input  &  &  &  & &  &  & &  &  &  &  &  & &  &  &  &  &  &  &  &  & & &
                  \cite{tama_leveraging_2022} & Time, Occurrence, Inferential, Combination Association-based, Supervised, ?, Process-aware input   &  &  &  & &  &  & &  &  &  &  &  & &  &  &  &  &  &  &  &  & & &
                  \cite{di_francescomarino_predictive_2022} & No prediction, survey   &  &  &  & &  &  & &  &  &  &  &  & &  &  &  &  &  &  &  &  & & &
                  \cite{kamala_process_2022} & No prediction, mini survey   &  &  &  & &  &  & &  &  &  &  &  & &  &  &  &  &  &  &  &  & & &
                  \cite{stevens_quantifying_2022} & Time, Occurrence, Inferential, Combination Association-based / Regression, Supervised, ?, Process-aware input   &  &  &  & &  &  & &  &  &  &  &  & &  &  &  &  &  &  &  &  & & &
                  \cite{pourbafrani_remaining_2022} & Time, Continuous, Inferential, Association-based, Supervised, ?, Process-aware input   &  &  &  & &  &  & &  &  &  &  &  & &  &  &  &  &  &  &  &  & & &
                  \cite{cabrera_text-aware_nodate} & Time and Semantic, Continuous and Categorical, Inferential, Neural network, Supervised, ?, Process-aware input   &  &  &  & &  &  & &  &  &  &  &  & &  &  &  &  &  &  &  &  & & &
                  \cite{basler_three_2022} & Time, Occurrence, Inferential, Association-based, Supervised, ?, Process-aware input &  &  &  & &  &  & &  &  &  &  &  & &  &  &  &  &  &  &  &  & & &
                  \cite{portolani_uncertainty_2022} & Semantic, Categorical, Inferential, Neural network, Supervised, Adam optimizer \cite{kingma2014adam}, Process-aware input   &  &  &  & &  &  & &  &  &  &  &  & &  &  &  &  &  &  &  &  & & &
                  \cite{ronzani_unstructured_2022} & Time, Occurrence, Inferential, Combination, Supervised, ?, Process-aware input   &  &  &  & &  &  & &  &  &  &  &  & &  &  &  &  &  &  &  &  & & &
                  \cite{marquez-chamorro_updating_2022} & Time, Occurrence, Inferential, Association-based, Supervised, ?, Process-aware input   &  &  &  & &  &  & &  &  &  &  &  & &  &  &  &  &  &  &  &  & & &
                  \cite{el-khawaga_xai_2022} & See \cite{elkhawaga_explainability_2022}   &  &  &  & &  &  & &  &  &  &  &  & &  &  &  &  &  &  &  &  & & &
                  \cite{bevacqua_data-driven_2014} & Time, Continuous, Inferential, Regression, Supervised, ?, Process-aware input   &  &  &  & &  &  & &  &  &  &  &  & &  &  &  &  &  &  &  &  & & &
                  \cite{kim_diagnostic_2021} & No prediction, study of sampling methods and evaluation metrics   &  &  &  & &  &  & &  &  &  &  &  & &  &  &  &  &  &  &  &  & & &
                  \cite{wolf_framework_2021} & No prediction, survey extension of \cite{di_francescomarino_predictive_2018} with context   &  &  &  & &  &  & &  &  &  &  &  & &  &  &  &  &  &  &  &  & & &
                  \cite{le_hybrid_2012} &  Duplicate to EP  &  &  &  & &  &  & &  &  &  &  &  & &  &  &  &  &  &  &  &  & & &
                  \cite{lakshmanan_markov_2015} & Semantic, Categorical, Hybrid, Discrete state system / Markov-based, Supervised, ProM \cite{van2009prom}/ C4.5 \cite{quinlan2014c4}, Process-aware input &  &  &  & &  &  & &  &  &  &  &  & &  &  &  &  &  &  &  &  & & &
                  \cite{mehdiyev_multi-stage_2017} & Duplicate   &  &  &  & &  &  & &  &  &  &  &  & &  &  &  &  &  &  &  &  & & &
                  \cite{pasquadibisceglie_multi-view_2021} &  Semantic, Categorical, Inferential, Neural network, Supervised, SMAC \cite{hutter2011sequential}, Process-aware input   &  &  &  & &  &  & &  &  &  &  &  & &  &  &  &  &  &  &  &  & & &
                  \cite{mehdiyev_novel_2020} & Semantic, Categorical, Inferential, Neural network, Supervised / Unsupervised, SGD \cite{sutskever2013importance}   &  &  &  & &  &  & &  &  &  &  &  & &  &  &  &  &  &  &  &  & & &
                  \cite{cuzzocrea_predictive_2018} & Time, Occurrence, Hybrid, Discrete state system / Regression, Supervised, CCD \cite{hutchison_mining_2014} / SGD \cite{sutskever2013importance} &  &  &  & &  &  & &        &  & &  &  &  &  &  &  &  &  & &
                  \cite{chiorrini_preliminary_2021} & Time and Semantic, Discrete and Aggregate, Inferential, Neural network, Reinforcement, BoltzmannQPolicy \cite{plappert2016keras}, Process-aware input  &  &  &  & &  &  & &  &  &  &  &  & &  &  &  &  &  &  &  &  & & &
                  \cite{pandey_test-bed_2011} & Time, Discrete, Inferential, Markov-based, Supervised, Baum-Welch \cite{baum1972inequality}, Process-aware input    &  &  &  & &  &  & &  &  &  &  &  & &  &  &  &  &  &  &  &  & & &
                  \cite{aburomman_vector-based_2019} & Time, Continuous, Hybrid, Discrete state system / Regression, Supervised, ATS \cite{van_der_aalst_time_2011}, Process-aware input  &  &  &  & &  &  & &  &  &  &  &  & &  &  &  &  &  &  &  &  & & &
                  \cite{di_mauro_activity_2019} & Semantic, Categorical, Inferential, Neural network, Supervised, Adam optimizer \cite{kingma2014adam}, Process-aware input   &  &  &  & &  &  & &  &  &  &  &  & &  &  &  &  &  &  &  &  & & &
                  \cite{galdo_seara_approach_2019} & Time, Discrete, Hybrid, Discrete state system / Combination, Supervised, ?, Process-aware input   &  &  &  & &  &  & &  &  &  &  &  & &  &  &  &  &  &  &  &  & & &
                  \cite{choueiri_extended_2020} & Time, Continuous, Hybrid, Discrete state system / Regression, Supervised, ATS \cite{van_der_aalst_time_2011}, Process-aware input   &  &  &  & &  &  & &  &  &  &  &  & &  &  &  &  &  &  &  &  & & &
                  \cite{di_francescomarino_eye_2017} & Semantic, Aggregate, Inferential, Neural network, Supervised, Adam optimizer \cite{kingma2014adam}, Process-aware input   &  &  &  & &  &  & &  &  &  &  &  & &  &  &  &  &  &  &  &  & & &
                  \cite{tax_interdisciplinary_2020} & No prediction model development, empirical comparison    &  &  &  & &  &  & &  &  &  &  &  & &  &  &  &  &  &  &  &  & & &
                  \cite{bartmann_applied_2021} & No prediction, only Camunda tool support   &  &  &  & &  &  & &  &  &  &  &  & &  &  &  &  &  &  &  &  & & &
                  \cite{jalayer_attention_2020} & Semantic, Categorical, Inferential, Neural network, Supervised, ?, Process-aware input, Global   &  &  &  & &  &  & &  &  &  &  &  & &  &  &  &  &  &  &  &  & & &
                  \cite{stierle_bringing_2021} & Duplicate to surveys, removed   &  &  &  & &  &  & &  &  &  &  &  & &  &  &  &  &  &  &  &  & & &
                  \cite{rico_business_2021} & Duplicate to EP, removed   &  &  &  & &  &  & &  &  &  &  &  & &  &  &  &  &  &  &  &  & & &
                  \cite{solomon_business_2011} & Time, Continuous, Inferential, Regression, Supervised, ?, Process-aware input   &  &  &  & &  &  & &  &  &  &  &  & &  &  &  &  &  &  &  &  & & &
                  \cite{brunk_cause_2021} & Semantic, Categorical, Inferential, Bayesian-based, Supervised, Expectation Maximization \cite{boyen_tractable_1998}, Process-aware input, Global  &  &  &  & &  &  & &  &  &  &  &  & &  &  &  &  &  &  &  &  & & &
                  \cite{francescomarino_clustering-based_2019} & Time, Occurrence, Inferential, Association-based, Supervised, C4.5 \cite{quinlan2014c4}, Process-aware input &  &  &  & &  &  & &  &  &  &  &  & &  &  &  &  &  &  &  &  & & &
                  \cite{ogunbiyi_comparative_2020} & No prediction, survey   &  &  &  & &  &  & &  &  &  &  &  & &  &  &  &  &  &  &  &  & & &
                  \cite{metzger_comparing_2015} & No prediction, survey   &  &  &  & &  &  & &  &  &  &  &  & &  &  &  &  &  &  &  &  & & &
                  \cite{ceci_completion_2014} & Time and Semantic, Continuous and Categorical, Inferential, Association-based, Supervised, C4.5 \cite{quinlan2014c4} / M5 \cite{wang1996induction}, Process-aware input, Local  &  &  &  & &  &  & &  &  &  &  &  & &  &  &  &  &  &  &  &  & & &
                  \cite{verenich_complex_2016} & Time, Occurrence, Inferential, Combination Distance-based / Association-based, Supervised, Hierarchical agglomerative clustering \cite{xu2005survey} / k-Mediods \cite{xu2005survey} / Random forest \cite{breiman_random_2001}, Process-aware input, Local  &  &  &  & &  &  & &  &  &  &  &  & &  &  &  &  &  &  &  &  & & &
                  \cite{leontjeva_complex_2015} & No prediction, selective empirical comparison   &  &  &  & &  &  & &  &  &  &  &  & &  &  &  &  &  &  &  &  & & &
                  \cite{harane_comprehensive_2020} & No prediction, survey   &  &  &  & &  &  & &  &  &  &  &  & &  &  &  &  &  &  &  &  & & &
                  \cite{becker_conceptualization_2020} & No prediction, process model for PPM projects   &  &  &  & &  &  & &  &  &  &  &  & &  &  &  &  &  &  &  &  & & &
                  \cite{yeshchenko_context-aware_2018} & Time, Continuous, Inferential, Association-based, Supervised, XGBoost \cite{chen_xgboost_2016}, Process-aware input, Global  &  &  &  & &  &  & &  &  &  &  &  & &  &  &  &  &  &  &  &  & & &
                  \cite{kappel_cost-sensitive_2021} & Semantic, Categorical, Inferential, Neural network, Supervised, ?, Process-aware input, Global   &  &  &  & &  &  & &  &  &  &  &  & &  &  &  &  &  &  &  &  & & &
                  \cite{weytjens_creating_2021} & No prediction, evaluation guideline   &  &  &  & &  &  & &  &  &  &  &  & &  &  &  &  &  &  &  &  & & &
                  \cite{polato_data-aware_2014} & Time, Continuous, Hybrid, Discrete state system / Combination, Supervised, ProM \cite{van2009prom} / Weka \cite{witten_weka_1999}, Process-aware input, Local  &  &  &  & &  &  & &  &  &  &  &  & &  &  &  &  &  &  &  &  & & &
                  \cite{rama-maneiro_deep_2021} & No prediction, survey   &  &  &  & &  &  & &  &  &  &  &  & &  &  &  &  &  &  &  &  & & &
                  \cite{lopez_castro_development_2021} & Semantic, Categorical, Inferential, Association-based, Supervised, XGBoost \cite{chen_xgboost_2016}, Process-aware input, Local Cluster &  &  &  & &  &  & &  &  &  &  &  & &  &  &  &  &  &  &  &  & & &
                  \cite{ceci_distributed_2018} & Same as \cite{ceci_completion_2014}, but with MapReduce that has no impact on assessment   &  &  &  & &  &  & &  &  &  &  &  & &  &  &  &  &  &  &  &  & & &
                  \cite{comuzzi_does_2019} & No prediction, reliability metric proposal  &  &  &  & &  &  & &  &  &  &  &  & &  &  &  &  &  &  &  &  & & &
                  \cite{dumas_enabling_2015} & No prediction, intro to PPM and deviance mining   &  &  &  & &  &  & &  &  &  &  &  & &  &  &  &  &  &  &  &  & & &
                  \cite{taymouri_encoder-decoder_2020} & Substantial overlap with \cite{taymouri_predictive_2020}   &  &  &  & &  &  & &  &  &  &  &  & &  &  &  &  &  &  &  &  & & &
                  \cite{taymouri_predictive_2020} & Time and Semantic, Continuous and Aggregate, Inferential, Neural network, Supervised, RMSProp \cite{tieleman2012lecture}, Process-aware input, Global  &  &  &  & &  &  & &  &  &  &  &  & &  &  &  &  &  &  &  &  & & &
                  \cite{kim_encoding_2022} & Time, Occurrence, Inferential, Association-based, Supervised, XGBoost \cite{chen_xgboost_2016}, Process-aware input, Global /   &  &  &  & &  &  & &  &  &  &  &  & &  &  &  &  &  &  &  &  & & &
                  \cite{kappel_evaluating_2021} & No prediction, survey on small datasets   &  &  &  & &  &  & &  &  &  &  &  & &  &  &  &  &  &  &  &  & & &
                  \cite{rizzi_explainability_2020} & Time, Occurrence, Inferential, Association-based, Supervised, Random forest \cite{breiman_random_2001}, Process-aware input, Global  &  &  &  & &  &  & &  &  &  &  &  & &  &  &  &  &  &  &  &  & & &
                  \cite{ouyang_explainable_2021} & Time, Occurrence, Inferential, Association-based, Supervised, Random forest \cite{breiman_random_2001}, Process-aware input, Global   &  &  &  & &  &  & &  &  &  &  &  & &  &  &  &  &  &  &  &  & & &
                  \cite{mehdiyev_explainable_2021} & Time, Occurrence, Inferential, Neural network, Supervised, SGD \cite{sutskever2013importance}, Process-aware input, Global   &  &  &  & &  &  & &  &  &  &  &  & &  &  &  &  &  &  &  &  & & &
                  \cite{harl_explainable_2020} & Time, Occurrence, Inferential, Neural network, Supervised, Adadelta \cite{zeiler2012adadelta}, Process-aware input, Global   &  &  &  & &  &  & &  &  &  &  &  & &  &  &  &  &  &  &  &  & & &
                  \cite{galanti_explainable_2020} & Time, Occurrence, Inferential, Neural network, Supervised, ?, Process-aware input, Global    &  &  &  & &  &  & &  &  &  &  &  & &  &  &  &  &  &  &  &  & & &
                  \cite{fahrenkrog-petersen_fire_2022} & Time, Occurrence, Inferential, Association-based, Supervised, XGBoost \cite{chen_xgboost_2016} / Random forest \cite{breiman_random_2001}, Process-aware input, Global   &  &  &  & &  &  & &  &  &  &  &  & &  &  &  &  &  &  &  &  & & &
                  \cite{senderovich_knowledge-driven_2019} & Time, Occurrence, Inferential, Association-based, Supervised, XGBoost \cite{chen_xgboost_2016} / Random forest \cite{breiman_random_2001}, Process-aware input, Global &  &  &  & &  &  & &  &  &  &  &  & &  &  &  &  &  &  &  &  & & &
                  \cite{weinzierl_predictive_2020} & Time, Continuous, Inferential, Neural network, Supervised, ?, Process-aware input, Global   &  &  &  & &  &  & &  &  &  &  &  & &  &  &  &  &  &  &  &  & & &
                  \cite{di_francescomarino_genetic_2018} & Time, Occurrence, Inferential, Association-based, Supervised, ?, Process-aware input, Local tluster   &  &  &  & &  &  & &  &  &  &  &  & &  &  &  &  &  &  &  &  & & &
                  \cite{jalayer_ham-net_2022} & Semantic, Categorical, Inferential, Neural network, Supervised, ?, Process-aware input, Global   &  &  &  & &  &  & &  &  &  &  &  & &  &  &  &  &  &  &  &  & & &
                  \cite{maisenbacher_handling_2017} & Time, Occurrence, Inferential, Association-based, Supervised, ?, Process-aware input, Local time   &  &  &  & &  &  & &  &  &  &  &  & &  &  &  &  &  &  &  &  & & &
                  \cite{prasidis_handling_2021} & Semantic, Categorical, Inferential, Bayesian-based, Supervised, ?, Process-aware input, Global   &  &  &  & &  &  & &  &  &  &  &  & &  &  &  &  &  &  &  &  & & &
                  \cite{rizzi_how_2022} & Time, Occurrence, Inferential, Association-based, Supervised, ?, Process-aware input, Global   &  &  &  & &  &  & &  &  &  &  &  & &  &  &  &  &  &  &  &  & & &
                  \cite{klijn_identifying_2020} & Time, Continuous, Inferential, Regression, Supervised, ?, Process-aware input, Global   &  &  &  & &  &  & &  &  &  &  &  & &  &  &  &  &  &  &  &  & & &
                  \cite{ogunbiyi_incorporating_2021} & Time, Continuous, Inferential, Regression, Supervised, ?, Process-aware input, Global   &  &  &  & &  &  & &  &  &  &  &  & &  &  &  &  &  &  &  &  & & &
                  \cite{pauwels_incremental_2021} & Semantic, Categorical, Inferential, Neural network, Supervised, ?, Process-aware input, Local time   &  &  &  & &  &  & &  &  &  &  &  & &  &  &  &  &  &  &  &  & & &
                  \cite{heinrich_integrating_2017} & No prediction, no PPM   &  &  &  & &  &  & &  &  &  &  &  & &  &  &  &  &  &  &  &  & & &
                  \cite{galanti2021integration} & No prediction, tool implementation of \cite{galanti_explainable_2020}   &  &  &  & &  &  & &  &  &  &  &  & &  &  &  &  &  &  &  &  & & &
                  \cite{wang_interval-based_2021} & Time, Continuous, Inferential, Neural network, Supervised, NAdam optimizer \cite{dozat2016incorporating}, Process-aware input, Global    &  &  &  & &  &  & &  &  &  &  &  & &  &  &  &  &  &  &  &  & & &
                  \cite{ogunbiyi_investigating_2020} & Time, Continuous, Generative, Continuous state system, Supervised, ?, Process-aware input, Global  &  &  &  & &  &  & &  &  &  &  &  & &  &  &  &  &  &  &  &  & & &
                  \cite{weytjens_learning_2021} & Time, Continuous, Inferential, Neural network, Supervised, Adam optimizer \cite{kingma2014adam} / Monte Carlo approximation \cite{davison1997bootstrap}, Process-aware input   &  &  &  & &  &  & &  &  &  &  &  & &  &  &  &  &  &  &  &  & & &
                  \cite{mehdiyev_local_2021} & Time, Occurrence, Inferential, Neural network, Supervised, Adadelta \cite{zeiler2012adadelta}, Process-aware input, Global  &  &  &  & &  &  & &  &  &  &  &  & &  &  &  &  &  &  &  &  & & &
                  \cite{bohmer_logo_2020} & Time and Semantic, Discrete and Categorical, Inferential, Association-based, Supervised, sprMine \cite{bohmer_logo_2020}, Process-aware input, Global / Local Cluster   &  &  &  & &  &  & &  &  &  &  &  & &  &  &  &  &  &  &  &  & & &
                  \cite{navarin_lstm_2017} & Time, Continuous, Inferential, Neural network, Supervised, NAdam optimizer \cite{dozat2016incorporating}, Process-aware input, Global  &  &  &  & &  &  & &  &  &  &  &  & &  &  &  &  &  &  &  &  & & &
                  \cite{kratsch_machine_2021} & No prediction, survey for outcome oriented PPM   &  &  &  & &  &  & &  &  &  &  &  & &  &  &  &  &  &  &  &  & & &
                  \cite{pasquadibisceglie_orange_2020} & Time, Occurrence, Inferential, Neural network, Supervised, ?, Process-aware input, Global   &  &  &  & &  &  & &  &  &  &  &  & &  &  &  &  &  &  &  &  & & &
                  \cite{wang_outcome-oriented_2019} & Time, Occurrence, Inferential, Neural network, Supervised, ?, Process-aware input, Global   &  &  &  & &  &  & &  &  &  &  &  & &  &  &  &  &  &  &  &  & & &
                  \cite{teinemaa_outcome-oriented_2019} & No prediction, empirical survey   &  &  &  & &  &  & &  &  &  &  &  & &  &  &  &  &  &  &  &  & & &
                  \cite{wahid_parallel-structure_2021} & Time, Continuous, Inferential, Neural network, Supervised, Adam optimizer \cite{kingma2014adam}, Process-aware input, Global   &  &  &  & &  &  & &  &  &  &  &  & &  &  &  &  &  &  &  &  & & &
                  \cite{kang_periodic_2012} & Time and Semantic, Occurrence and Aggregate, Inferential, Distance-based, Supervised, SVM \cite{widodo2007support} / kNN \cite{moeur1995most}, Process-aware input, Global    &  &  &  & &  &  & &  &  &  &  &  & &  &  &  &  &  &  &  &  & & &
                  \cite{rogge-solti_prediction_2015} & Time, Continuous, Hybrid, Discrete state system / Regression, Supervised, Maximum likelihood estimation \cite{richards_method_1961}, Process-aware input, Local state   &  &  &  & &  &  & &  &  &  &  &  & &  &  &  &  &  &  &  &  & & &
                  \cite{brunk_prediction_2018} & Semantic, Categorical, Inferential, Bayesian-based, Supervised, Expectation Maximization \cite{boyen_tractable_1998}, Process-aware input, Global  &  &  &  & &  &  & &  &  &  &  &  & &  &  &  &  &  &  &  &  & & &
                  \cite{liu_prediction_2018} & Time, Occurrence, Inferential, Association-based, Supervised, ?, Process-aware input, Local cluster  &  &  &  & &  &  & &  &  &  &  &  & &  &  &  &  &  &  &  &  & & &
                  \cite{rogge-solti_prediction_2013} & Time, Continuous, Hybrid, Discrete state system / Regression, Supervised, Maximum likelihood estimation \cite{richards_method_1961}, Process-aware input, Local state  &  &  &  & &  &  & &  &  &  &  &  & &  &  &  &  &  &  &  &  & & &
                  \cite{weinzierl_predictive_2021} & Time, Occurrence, Inferential, Neural network, Supervised, ?, Process-aware input, Global  &  &  &  & &  &  & &  &  &  &  &  & &  &  &  &  &  &  &  &  & & &
                  \cite{metzger_predictive_2017} & Time, Occurrence, Inferential, Neural network, Supervised, ?, Process-aware input, Ensemble  &  &  &  & &  &  & &  &  &  &  &  & &  &  &  &  &  &  &  &  & & &
                  \cite{taymouri_predictive_2020} & Duplicate to EP   &  &  &  & &  &  & &  &  &  &  &  & &  &  &  &  &  &  &  &  & & &
                  \cite{tax_predictive_2017} & Time and Semantic, Continuous and Aggregate, Inferential, Neural network, Supervised, ?, Process-aware input, Global   &  &  &  & &  &  & &  &  &  &  &  & &  &  &  &  &  &  &  &  & & &
                  \cite{teinemaa_predictive_2016} & Time, Occurrence, Inferential, Association-based / Regression, Supervised, Random forest \cite{breiman_random_2001} / OLS \cite{freedman2009statistical}  &  &  &  & &  &  & &  &  &  &  &  & &  &  &  &  &  &  &  &  & & &
                  \cite{wahid_predictive_2019} & Time, Continuous, Inferential, Neural network, Supervised, Adam optimizer \cite{kingma2014adam}, Process-aware input, Global &  &  &  & &  &  & &  &  &  &  &  & &  &  &  &  &  &  &  &  & & &
                  \cite{maggi_predictive_2014} & Time, Occurrence, Inferential, Association-based, Supervised, C4.5 \cite{quinlan2014c4}, Process-aware input, Local cluster  &  &  &  & &  &  & &  &  &  &  &  & &  &  &  &  &  &  &  &  & & &
                  \cite{marquez-chamorro_predictive_2018} & No prediction, survey   &  &  &  & &  &  & &  &  &  &  &  & &  &  &  &  &  &  &  &  & & &
                  \cite{cuzzocrea_predictive_2019} & Time, Occurrence, Hybrid, Discrete state system / Regression, Supervised, CCD \cite{hutchison_mining_2014} / SGD \cite{sutskever2013importance}&    &  &  & &  &  & &  &  &  &  &  & &  &  &  &  &  &  &  &  & & &
                  \cite{spree_predictive_2020} & No prediction, survey   &  &  &  & &  &  & &  &  &  &  &  & &  &  &  &  &  &  &  &  & & &
                  \cite{verenich_predictive_2018} & No prediction, tool support  &  &  &  & &  &  & &  &  &  &  &  & &  &  &  &  &  &  &  &  & & &
                  \cite{gunnarsson_predictive_2019} & Time, Continuous, Inferential, Association-based / Neural network, Supervised, Random forest \cite{breiman_random_2001}, Process-aware input, Global   &  &  &  & &  &  & &  &  &  &  &  & &  &  &  &  &  &  &  &  & & &
                  \cite{di_francescomarino_predictive_2018} & No prediction, survey   &  &  &  & &  &  & &  &  &  &  &  & &  &  &  &  &  &  &  &  & & &
                  \cite{lamghari_predictive_2019} & No prediction, survey   &  &  &  & &  &  & &  &  &  &  &  & &  &  &  &  &  &  &  &  & & &
                  \cite{khan_predictive_2019}  & Semantic, Categorical, Inferential, Markov-based, Supervised, Maximum Likelihood estimation \cite{richards_method_1961}, Process-aware input, Global   &  &  &  & &  &  & &  &  &  &  &  & &  &  &  &  &  &  &  &  & & &
                  \cite{cabanillas_predictive_2014} & Time, Discrete, Inferential, Distance-based, Supervised, ?, Process-aware input, Global   &  &  &  & &  &  & &  &  &  &  &  & &  &  &  &  &  &  &  &  & & &
                  \cite{bozorgi_prescriptive_2021} & No prediction, focus on prescription   &  &  &  & &  &  & &  &  &  &  &  & &  &  &  &  &  &  &  &  & & &
                  \cite{conforti_prism_2016} & Time, Occurrence, Generative, Discrete state system, Analytical, Proposed \cite{conforti_prism_2016}, Process-aware input, Global   &  &  &  & &  &  & &  &  &  &  &  & &  &  &  &  &  &  &  &  & & &
                  \cite{tariq_proactive_2021} & Time, Occurrence, Hybrid, Discrete state system / Association-based, Supervised, Heuristic miner \cite{weijters2006process} / Random forest \cite{breiman_random_2001}, Process-aware input, Global   &  &  &  & &  &  & &  &  &  &  &  & &  &  &  &  &  &  &  &  & & &
                  \cite{bohmer_probability_2018} & Time and Semantic, Discrete and Categorical, Inferential, Distance-based, Supervised, Proposed \cite{bohmer_probability_2018}, Process-aware input, Global   &  &  &  & &  &  & &  &  &  &  &  & &  &  &  &  &  &  &  &  & & &
                  \cite{weytjens_process_2020} & No prediction, empirical survey   &  &  &  & &  &  & &  &  &  &  &  & &  &  &  &  &  &  &  &  & & &
                  \cite{bolt_process_2014} & Time, Continuous, Inferential, Bayesian-based, Supervised, Proposed \cite{bolt_process_2014}, Process-aware input, Local cluster   &  &  &  & &  &  & &  &  &  &  &  & &  &  &  &  &  &  &  &  & & &
                  \cite{bukhsh_processtransformer_2021} & Time, Continuous, Inferential, Neural network, Supervised, Adam optimizer \cite{kingma2014adam}, Process-aware input, Global   &  &  &  & &  &  & &  &  &  &  &  & &  &  &  &  &  &  &  &  & & &
                  \cite{bukhsh_processtransformer_2021} & Semantic, Categorical, Inferential, Neural network, Supervised, Adam optimizer \cite{kingma2014adam}, Process-aware input, Global    &  &  &  & &  &  & &  &  &  &  &  & &  &  &  &  &  &  &  &  & & &
                  \cite{kang_periodic_2012} & Time, Occurrence, Inferential, Distance-based, Supervised, LOF \cite{breunig2000lof}, Process-aware input, Local cluster   &  &  &  & &  &  & &  &  &  &  &  & &  &  &  &  &  &  &  &  & & &
                  \cite{firouzian_real-time_2019} & Time, Continuous, Hybrid, Discrete state system / Distance-based, Supervised, Alpha miner \cite{van2004workflow}, Process-aware input, Local state   &  &  &  & &  &  & &  &  &  &  &  & &  &  &  &  &  &  &  &  & & &
                  \cite{cao_remaining_2021} & Time, Continuous, Hybrid, Discrete state system / Neural network, Supervised, Extended transition system \cite{rogge-solti_prediction_2015}, Process-aware input, Local cluster / Local state   &  &  &  & &  &  & &  &  &  &  &  & &  &  &  &  &  &  &  &  & & &
                  \cite{pourbafrani_remaining_2021} & Duplicate to Feb 2022 >, see there   &  &  &  & &  &  & &  &  &  &  &  & &  &  &  &  &  &  &  &  & & &
                  \cite{sun_remaining_2020} & Time, Continuous, Inferential, Association-based, Supervised, XGBoost \cite{chen_xgboost_2016} / LightGBM \cite{ke2017lightgbm}, Process-aware input, Global &  &  &  & &  &  & &  &  &  &  &  & &  &  &  &  &  &  &  &  & & &
                  \cite{marquez-chamorro_run-time_2017} & Time, Occurrence, Inferential, Association-based, Supervised, Evolutionary \cite{corcoran_using_1994}, Process-aware input, Global   &  &  &  & &  &  & &  &  &  &  &  & &  &  &  &  &  &  &  &  & & &
                  \cite{jian_selecting_2019} & Fascinating for PCM system (publishing points --> system architecture), but no prediction model   &  &  &  & &  &  & &  &  &  &  &  & &  &  &  &  &  &  &  &  & & &
                  \cite{santoso_specification-driven_2020} & PCM system interface possible for predicate prediction, but no prediction method in itself    &  &  &  & &  &  & &  &  &  &  &  & &  &  &  &  &  &  &  &  & & &
                  \cite{kim_stability_2021} & No prediction, but quality framework and metrics for evaluation   &  &  &  & &  &  & &  &  &  &  &  & &  &  &  &  &  &  &  &  & & &
                  \cite{brunk_structuring_2020} & No prediction, context taxonomy   &  &  &  & &  &  & &  &  &  &  &  & &  &  &  &  &  &  &  &  & & &
                  \cite{verenich_survey_2019} & No prediction, survey   &  &  &  & &  &  & &  &  &  &  &  & &  &  &  &  &  &  &  &  & & &
                  \cite{li_clustering-based_2014} & Time, Occurrence, Inferential, Distance-based, Supervised, ?, Process-agnostic input, Global   &  &  &  & &  &  & &  &  &  &  &  & &  &  &  &  &  &  &  &  & & &
                  \cite{teinemaa_temporal_2018} & No prediction, empirical survey with new property of prediction models: temporal stability  &  &  &  & &  &  & &  &  &  &  &  & &  &  &  &  &  &  &  &  & & &
                  \cite{pegoraro_text-aware_2021} & Time and Semantic, Continuous and Categorical, Inferential, Neural network, Supervised, ?, Process-aware input, Global   &  &  &  & &  &  & &  &  &  &  &  & &  &  &  &  &  &  &  &  & & &
                  \cite{drodt_recomminder_2021} & No prediction, but tool support to implement and configure PPM    &  &  &  & &  &  & &  &  &  &  &  & &  &  &  &  &  &  &  &  & &
                  \cite{polato_time_2018} & Time and Semantic, Continuous and Aggregate, Hybrid, Discrete state system / Bayesian-based / Distance-based, Supervised, ProM \cite{van2009prom} / Sequential minimal optimization in WEKA \cite{witten_weka_1999}, Process-aware input, Local state  &  &  &  & &  &  & &  &  &  &  &  & &  &  &  &  &  &  &  &  & & &
                  \cite{nguyen2020time} & Time and Semantic, Continuous and Aggregate, Inferential, Neural network, Supervised, NAdam optimizer \cite{dozat2016incorporating}, Process-aware input, Global   &  &  &  & &  &  & &  &  &  &  &  & &  &  &  &  &  &  &  &  & & &
                  \cite{huang_time_2014} & Time, Continuous, Hybrid, Discrete state system / Distance-based, Supervised, ?, Process-aware input, Local state / Local cluster   &  &  &  & &  &  & &  &  &  &  &  & &  &  &  &  &  &  &  &  & & &
                  \cite{klinkmuller_towards_2018} & No prediction, but empirical study on feature encoding impacting reliability   &  &  &  & &  &  & &  &  &  &  &  & &  &  &  &  &  &  &  &  & & &
                  \cite{ferreira_virtual_2015} & No prediction, rather system architecture for monitoring   &  &  &  & &  &  & &  &  &  &  &  & &  &  &  &  &  &  &  &  & & &
                  \cite{albertetti_workload_2020} & Time and Semantic, Continuous and Aggregate, Hybrid, Discrete state system / Combination Neural network / Distance-based, Supervised, ?, Process-aware input, Local cluster   &  &  &  & &  &  & &  &  &  &  &  & &  &  &  &  &  &  &  &  & & &
                  \cite{coppolino_sla_2010} & No prediction, SAP BO like framework   &  &  &  & &  &  & &  &  &  &  &  & &  &  &  &  &  &  &  &  & & &
                  \cite{metzger_predictive_2012} & No prediction, conceptual framework   &  &  &  & &  &  & &  &  &  &  &  & &  &  &  &  &  &  &  &  & & &
                  \cite{weinzierl_predictive_2020} & Duplicate to PPM  &  &  &  & &  &  & &  &  &  &  &  & &  &  &  &  &  &  &  &  & & &
                  \cite{eom_wtte-rnn_2022} & Time, Continuous, Hybrid, Continuous state system / Neural network, Supervised, ?, Process-agnostic input, Global  &  &  &  & &  &  & &  &  &  &  &  & &  &  &  &  &  &  &  &  & & &
                  \cite{xu_alarm_2020} & Time, Occurrence, Inferential, Combination Distance-based / Bayesian-based, Supervised, SW algorithm, Process-agnostic input, Local cluster  &  &  &  & &  &  & &  &  &  &  &  & &  &  &  &  &  &  &  &  & & &
                  \cite{dubey_bayesian_2022} & Time, Continuous, Inferential, Combination Neural network / Bayesian-based, Supervised, Adam optimizer \cite{kingma2014adam}, Process-aware input, Global  &  &  &  & &  &  & &  &  &  &  &  & &  &  &  &  &  &  &  &  & & &
                   \cite{lu_collaborative_2021} & Time, Occurrence, Hybrid, Discrete-state system / Neural network, Supervised, Process-agnostic input, Global &  &  &  &  & &  &  & &  &  &  &  &  & &  &  &  &  &  &    &  & & &
                  \cite{wanyan_contrastive_2021} & Time, Continuous, Inferential, Neural network, Supervised, Process-agnostic input, Global  &  &  &  & &  &  & &  &  &  &  &  & &  &  &  &  &  &  &  &  & & &
                  \cite{do_carmo_embedding_2021} & Time and Location and Semantic, Occurrence and Raster-based and Categorical, Inferential, Neural network, Supervised, Process-agnostic input, Global  &  &  &  & &  &  & &  &  &  &  &  & &  &  &  &  &  &  &  &  & & &
                  \cite{deep_event_2020} & Time, Continuous, Hybrid, Continuous state system / Bayesian-based, Supervised, Maximum penalized likelihood estimation in a gamma-frailty model, Process-aware input, Local state  &  &  &  & &  &  & &  &  &  &  &  & &  &  &  &  &  &  &  &  & & &
                  \cite{cekinel_event_2022} & Time, Occurrence, Inferential, Association-based, Supervised, PrefixSpan / RuleGen, Process-agnostic input, Global  &  &  &  & &  &  & &  &  &  &  &  & &  &  &  &  &  &  &  &  & & &
                  \cite{weiss_forest-based_2013} & Time, Continuous, Hybrid, Continuous state system / Bayesian-based, Supervised, ?, Process-agnostic input, Global  &  &  &  & &  &  & &  &  &  &  &  & &  &  &  &  &  &  &  &  & & &
                  \cite{neumann_future_2019} & Time, Continuous, Inferential, Neural network, Supervised, SGD \cite{sutskever2013importance}, Process-agnostic input, Global  &  &  &  & &  &  & &  &  &  &  &  & &  &  &  &  &  &  &  &  & & &
                  \cite{huang_multi-head_2021} & Time and Location, Discrete and Raster-based, Inferential, Neural network, Supervised, ?, Process-agnostic input, Global  &  &  &  & &  &  & &  &  &  &  &  & &  &  &  &  &  &  &  &  & & &
                  \cite{pourhomayoun_multiple_2014} & Time, Occurrence, Inferential, Combination Distance-based / Association-based, Supervised, ?, Process-agnostic input, Local cluster  &  &  &  & &  &  & &  &  &  &  &  & &  &  &  &  &  &  &  &  & & &
                  \cite{duan_clinical_2020} & Time, Discrete, Hybrid, Continuous state system / Neural network, Supervised, ?, Process-agnostic input, Global  &  &  &  & &  &  & &  &  &  &  &  & &  &  &  &  &  &  &  &  & & &
                  \cite{tuke_pachinko_2020} & Time, Occurrence, Hybrid, Continuous state system / Bayesian-based, Supervised, MLE, Process-agnostic input, Global  &  &  &  & &  &  & &  &  &  &  &  & &  &  &  &  &  &  &  &  & & &
                  \cite{qiao_pairwise-ranking_2018} & Time, Continuous, Hybrid, Continuous state system / Neural network, Supervised, ?, Process-agnostic input, Global  &  &  &  & &  &  & &  &  &  &  &  & &  &  &  &  &  &  &  &  & & &
                  \cite{pickett_random_2021} & Time, Continuous, Inferential, Association-based, Supervised, Random Survival Forest, Process-agnostic input, Global &  &  &  & &  &  & &  &  &  &  &  & &  &  &  &  &  &  &  &  & & &
                  \cite{lu_self-supervised_2021} & Time, Occurrence, Inferential, Neural network, Unsupervised, Adam optimizer / RMSProp, Process-agnostic input, Global  &  &  &  & &  &  & &  &  &  &  &  & &  &  &  &  &  &  &  &  & & &
                  \cite{lu_context-aware_2022} & Time, Occurrence, Hybrid, Discrete-state system / Neural network, Supervised, Adam optimizer,Process-agnostic input, Global  &  &  &  & &  &  & &  &  &  &  &  & &  &  &  &  &  &  &  &  & & &
                  \cite{wu_uncertainty-aware_2021} & Time, Continuous, Hybrid, Continuous state system / Neural network, Supervised, ?, Process-agnostic input, Global   &  &  &  & &  &  & &  &  &  &  &  & &  &  &  &  &  &  &  &  & & &
                  \cite{yang_using_2019} & Time, Occurrence, Hybrid, Discrete state system / Neural network, Supervised, ?, Process-aware input, Global  &  &  &  & &  &  & &  &  &  &  &  & &  &  &  &  &  &  &  &  & & &
                  \cite{ren_deep_2018} & Time and Location, Discrete and Raster-based, Inferential, Neural network, Supervised, RMSProp, Process-agnostic input, Global  &  &  &  & &  &  & &  &  &  &  &  & &  &  &  &  &  &  &  &  & & &
                  \cite{wang_hierarchical_2015} & Time and Location, Discrete and Raster-based, Inferential, Association-based, Supervised, Proposed, Process-agnostic input, Local cluster  &  &  &  & &  &  & &  &  &  &  &  & &  &  &  &  &  &  &  &  & & &
                  \cite{xue_miml-lstm_2018} & Time, Discrete, Inferential, Neural network, Supervised, ?, Process-agnostic input, Global  &  &  &  & &  &  & &  &  &  &  &  & &  &  &  &  &  &  &  &  & & &
                  \cite{ulfelder_multimodel_2013} & Time and Location, Discrete and Raster-based, Inferential, Combination, Supervised, ?, Process-agnostic input, Global  &  &  &  & &  &  & &  &  &  &  &  & &  &  &  &  &  &  &  &  & & &
                  \cite{liao_novel_2010} & Location, Raster-based, Inferential, Bayesian-based, Supervised, ?, Process-agnostic input, Global  &  &  &  & &  &  & &  &  &  &  &  & &  &  &  &  &  &  &  &  & & &
                  \cite{zhou_pattern_2015} & Time, Occurrence, Inferential, Association-based, Supervised, Proposed, Process-aware input, Local time &  &  &  & &  &  & &  &  &  &  &  & &  &  &  &  &  &  &  &  & & &
                  \cite{rudin_process_2010} & Time and Location, Occurrence and Raster-based, Inferential, Regression, Supervised, P-Norm Push algorithm, Process-agnostic input, Global  &  &  &  & &  &  & &  &  &  &  &  & &  &  &  &  &  &  &  &  & & &
                  \cite{yi_integrated_2018} & Time and Location, Discrete and Raster-based, Inferential, Combination Regression / Distance-based, Supervised, Proposed, Process-agnostic input, Local cluster  &  &  &  & &  &  & &  &  &  &  &  & &  &  &  &  &  &  &  &  & & &
                  \cite{boni_area-specific_2016} & Location, Raster-based, Inferential, Combination Regression / Distance-based, Supervised, L2-regularized logistic regression solver / SVM, Process-agnostic input, Global / Local cluster  &  &  &  & &  &  & &  &  &  &  &  & &  &  &  &  &  &  &  &  & & &
                  \cite{ramakrishnan_beating_2014} & Time and Location and Semantic, Discrete and Raster-based and Aggregate, Inferential, Combination Regression / Distance-based, Supervised, ?, Process-agnostic input, Local cluster  &  &  &  & &  &  & &  &  &  &  &  & &  &  &  &  &  &  &  &  & & &
                  \cite{kang_carbon_2017} & Time and Location and Semantic, Discrete and Raster-based and Aggregate, Inferential, Combination Regression / Distance-based, Supervised, ?, Process-agnostic input, Global  &  &  &  & &  &  & &  &  &  &  &  & &  &  &  &  &  &  &  &  & & &
                  \cite{acharya_causal_2017} & Semantic, Categorical, Inferential, Bayesian-based / Markov-based, Supervised, Proposed, Process-aware input, Local state  &  &  &  & &  &  & &  &  &  &  &  & &  &  &  &  &  &  &  &  & & &
                  \cite{jiang_deepurbanevent_2019} & Time and Location, Discrete and Raster-based, Inferential, Neural network, Supervised, Adam optimizer, Process-agnostic input, Global  &  &  &  & &  &  & &  &  &  &  &  & &  &  &  &  &  &  &  &  & & &
                  \cite{zhao_distant-supervision_2018} & Time and Location, Discrete and Raster-based, Inferential, Regression, Supervised, Proposed, Process-agnostic input, Global   &  &  &  & &  &  & &  &  &  &  &  & &  &  &  &  &  &  &  &  & & &
                  \cite{adhikari_epideep_2019} & Time, Discrete, Inferential, Neural network, Supervised, Adam optimizer, Process-agnostic input, Global   &  &  &  & &  &  & &  &  &  &  &  & &  &  &  &  &  &  &  &  & & &
                  \cite{de_caigny_new_2018} & Time, Occurrence, Inferential, Combination Association-based / Regression, Supervised, ?, Process-agnostic input, Local cluster  &  &  &  & &  &  & &  &  &  &  &  & &  &  &  &  &  &  &  &  & & &
                  \cite{bao_spatiotemporal_2019} & Time and Location, Discrete and Raster-based, Inferential, Neural network, Supervised, Adam optimizer, Process-agnostic input, Global   &  &  &  & &  &  & &  &  &  &  &  & &  &  &  &  &  &  &  &  & & &
                  \cite{zhou_tensor_2019} & Time and Location and Semantic, Discrete and Raster-based and Categorical, Inferential, Tensor-based, Supervised, Proposed, Process-agnostic input, Global  &  &  &  & &  &  & &  &  &  &  &  & &  &  &  &  &  &  &  &  & & &
                  \cite{bisset_epifast_2009} & No prediction model development, but very interesting simulation engine on networks  &  &  &  & &  &  & &  &  &  &  &  & &  &  &  &  &  &  &  &  & & &
                  \cite{wang_csan_2020} & Time and Location, Discrete and Raster-based, Inferential, Neural network, Supervised, Adam optimizer, Process-agnostic input, Global  &  &  &  & &  &  & &  &  &  &  &  & &  &  &  &  &  &  &  &  & & &
                  \cite{calabrese_estimating_2016} & Location, Point-based, Inferential, Regression, Supervised, Modified Gibbs sampling method, Process-agnostic input, Global  &  &  &  & &  &  & &  &  &  &  &  & &  &  &  &  &  &  &  &  & & &
                  \cite{hurriyetoglu_estimating_2018} & No prediction, excluded for too little model advancement  &  &  &  & &  &  & &  &  &  &  &  & &  &  &  &  &  &  &  &  & & &
                  \cite{fronza_failure_2013} & Semantic, Categorical, Inferential, Distance-based, Supervised, SVM, Process-aware input, Global  &  &  &  & &  &  & &  &  &  &  &  & &  &  &  &  &  &  &  &  & & &
                  \cite{matsubara_fast_2012} & Time and Semantic, Discrete and Aggregate, Inferential, Regression, Supervised, ?, Process-aware input, Local cluster &  &  &  & &  &  & &  &  &  &  &  & &  &  &  &  &  &  &  &  & & &
                  \cite{blair_forecasting_2020} & Time and Location, Discrete and Raster-based, Hybrid, Discrete state system / Association-based, Supervised, Random forests, Process-agnostic input, Global  &  &  &  & &  &  & &  &  &  &  &  & &  &  &  &  &  &  &  &  & & &
                  \cite{vahedian_forecasting_2017} & Previous work to \cite{khezerlou_forecasting_2021} &  &  &  & &  &  & &  &  &  &  &  & &  &  &  &  &  &  &  &  & & &
                  \cite{khezerlou_forecasting_2021} & Time and Location, Discrete and Raster-based, Inferential, Bayesian-based, Supervised, ?, Process-aware input, Local cluster  &  &  &  & &  &  & &  &  &  &  &  & &  &  &  &  &  &  &  &  & & &
                  \cite{reid_forecasting_2018} & Time, Discrete, Inferential, Neural network, Supervised, Spike Time Dependent Plasticity, Process-agnostic input, Global  &  &  &  & &  &  & &  &  &  &  &  & &  &  &  &  &  &  &  &  & & &
                  \cite{yuan_hetero-convlstm_2018} & Time and Location, Discrete and Raster-based, Inferential, Neural network, Supervised, Process-agnostic input, Local cluster &  &  &  & &  &  & &  &  &  &  &  & &  &  &  &  &  &  &  &  & & &
                   \cite{xue_spatial_2006} & Time and Location, Continuous and Point-based, Generative, Continuous state system, Supervised, ?, Process-agnostic input, Global  &  &  &  & &  &  & &  &  &  &  &  & &  &  &  &  &  &  &  &  & & &
                  \cite{kaveh_new_2020} & Time, Discrete, Inferential, Markov-based, Supervised, Proposed, Process-agnostic input, Global  &  &  &  & &  &  & &  &  &  &  &  & &  &  &  &  &  &  &  &  & & &
                  \cite{liu_multi-channel_2022} & Time, Discrete, Inferential, Neural network, Supervised, Adam optimizer, Process-agnostic input / Process-aware input, Global &  &  &  & &  &  & &  &  &  &  &  & &  &  &  &  &  &  &  &  & & &
                  \cite{taghizadegan_obstructive_2021} & Time, Discrete, Inferential, Neural network, Supervised, ?, Process-agnostic input, Global  &  &  &  & &  &  & &  &  &  &  &  & &  &  &  &  &  &  &  &  & & &
                  \cite{zhao_hierarchical_2016} & Time, Discrete, Hybrid, Discrete state system / Regression, Supervised, Hierarchical Incomplete Feature Learning, Process-agnostic input, Global  &  &  &  & &  &  & &  &  &  &  &  & &  &  &  &  &  &  &  &  & & &
                  \cite{hughes_improved_2002} & Time, Occurrence, Generative, Discrete state system, Supervised, Rank-sum test, Process-agnostic input, Global  &  &  &  & &  &  & &  &  &  &  &  & &  &  &  &  &  &  &  &  & & &
                  \cite{gao_incomplete_2019} & Location, Point-based, Inferential, Neural network, Supervised, Proposed, Process-agnostic input, Global / Local cluster &  &  &  & &  &  & &  &  &  &  &  & &  &  &  &  &  &  &  &  & & &
                  \cite{gao_incomplete_2018} & Time, Occurrence, Inferential, Regression, Supervised, Proposed, Process-agnostic input, Global / Local cluster  & &  &  & &  &  & &  &  &  &  &  & &  &  &  &  &  &  &  &  & & &
                  \cite{letham_interpretable_2015} & Semantic, Categorical, Inferential, Bayesian-based / Association-based, Supervised, Proposed, Process-agnostic input, Global   &  &  &  & &  &  & &  &  &  &  &  & &  &  &  &  &  &  &  &  & & &
                  \cite{dempsey_isurvive_2017} & Time and Semantic, Continuous and Categorical, Hybrid, Continuous state system / Markov-based / Regression, Supervised, Proposed, Process-agnostic input / Process-aware input, Global  &  &  &  & &  &  & &  &  &  &  &  & &  &  &  &  &  &  &  &  & & &
                  \cite{radinsky_learning_2012} & Semantic, Aggregate, Inferential, Distance-based, Supervised, Proposed, Process-agnostic input / Process-aware input, Local cluster  &  &  &  & &  &  & &  &  &  &  &  & &  &  &  &  &  &  &  &  & & &
                  \cite{susto_machine_2015} & Time, Discrete, Inferential, Distance-based, Supervised, SVM / kNN, Process-agnostic input, Global  &  &  &  & &  &  & &  &  &  &  &  & &  &  &  &  &  &  &  &  & & &
                  \cite{huang_mist_2019} & Time and Location, Discrete and Raster-based, Inferential, Combination Tensor-based / Neural network, Supervised, Adam optimizer, Process-agnostic input, Global  &  &  &  & &  &  & &  &  &  &  &  & &  &  &  &  &  &  &  &  & & &
                  \cite{lin_mm-pred_2019} & Semantic, Aggregate, Inferential, Neural network, Supervised, ?, Process-aware input, Global  &  &  &  & &  &  & &  &  &  &  &  & &  &  &  &  &  &  &  &  & & &
                  \cite{oki_mobile_2018} & Time, Discrete, Inferential, Combination Association-based / Regression / Neural network, Supervised, ?, Process-agnostic input / Process-aware input, Global / Local cluster  &  &  &  & &  &  & &  &  &  &  &  & &  &  &  &  &  &  &  &  & & &
                  \cite{zhao_multi-resolution_2016} & Location, Raster-based, Hybrid, Discrete state system / Regression, Supervised, Proposed, Process-agnostic input, Global / Local cluster  &  &  &  & &  &  & &  &  &  &  &  & &  &  &  &  &  &  &  &  & & &
                  \cite{yi_neural_2019} & Location, Raster-based, Hybrid, Discrete state system / Combination Regression / Neural network, Supervised, Proposed, Process-agnostic input, Global  &  &  &  & &  &  & &  &  &  &  &  & &  &  &  &  &  &  &  &  & & &
                  \cite{dami_news_2018} & Semantic, Aggregate, Hybrid, Discrete state system / Markov-based, Supervised, Proposed, Process-agnostic input / Process-aware input, Global  &  &  &  & &  &  & &  &  &  &  &  & &  &  &  &  &  &  &  &  & & &
                  \cite{ding_online_2018} & Time and Semantic, Discrete and Categorical, Hybrid, Discrete state system / Regression, Supervised, Fuzzy rule inference / ARIMA, Process-agnostic input, Local cluster  &  &  &  & &  &  & &  &  &  &  &  & &  &  &  &  &  &  &  &  & & &
                  \cite{chen_pcnn_2018} & Time, Discrete, Inferential, Neural network, Supervised, RMSProp, Process-agnostic input, Global   &  &  &  & &  &  & &  &  &  &  &  & &  &  &  &  &  &  &  &  & & &
                  \cite{vilalta_predicting_2002} & Semantic, Categorical, Inferential, Association-based, Supervised, Proposed, Process-aware input, Global  &  &  &  & &  &  & &  &  &  &  &  & &  &  &  &  &  &  &  &  & & &
                  \cite{decroos_predicting_2017} & Semantic, Categorical, Inferential, Combination Distance-based / Bayesian-based, Supervised, DTW, Process-aware input, Global  &  &  &  & &  &  & &  &  &  &  &  & &  &  &  &  &  &  &  &  & & &
                  \cite{vahedian_predicting_2019} & Time, Continuous, Hybrid, Continuous state system / Neural network, Supervised, ?, Process-agnostic input, Global  &  &  &  & &  &  & &  &  &  &  &  & &  &  &  &  &  &  &  &  & & &
                  \cite{zhong_prediction_2019} & Time, Occurrence, Inferential, Bayesian-based, Supervised, ?, Process-agnostic input, Global  &  &  &  & &  &  & &  &  &  &  &  & &  &  &  &  &  &  &  &  & & &
                  \cite{ertekin_reactive_2015} & Time, Continuous, Hybrid, Continuous state system / Combination Regression / Bayesian-based, Supervised, ?, Process-aware input / Process-agnostic input, Global   &  &  &  & &  &  & &  &  &  &  &  & &  &  &  &  &  &  &  &  & & &
                  \cite{brandt_real_2011} & Time and Semantic, Discrete and Categorical, Inferential, Combination Bayesian-based / Markov-based / Regression, Supervised, Gibbs sampling, Process-agnostic input, Global &  &  &  & &  &  & &  &  &  &  &  & &  &  &  &  &  &  &  &  & & &
                  \cite{zhao_simnest_2015} & Time and Semantic, Discrete and Aggregate, Hybrid, Discrete state system / Neural network, Semi-supervised, SGD / Nelder-Mead / Analytical, Process-aware input / Process-agnostic input, Global &  &  &  & &  &  & &  &  &  &  &  & &  &  &  &  &  &  &  &  & & &
                  \cite{jans_skip_2012} & Semantic, Categorical, Inferential, Bayesian-based, Supervised, ?, Process-aware input, Global  &  &  &  & &  &  & &  &  &  &  &  & &  &  &  &  &  &  &  &  & & &
                  \cite{zhao_spatial_2019} & Location, Point-based, Hybrid, Discrete state system / Regression, Supervised, Proposed, Process-agnostic input, Global  &  &  &  & &  &  & &  &  &  &  &  & &  &  &  &  &  &  &  &  & & &
                  \cite{zhao_spatial_2017} & Invited paper \cite{zhao_multi-resolution_2016} see there  &  &  &  & &  &  & &  &  &  &  &  & &  &  &  &  &  &  &  &  & & &
                  \cite{kupilik_spatio-temporal_2018} & No prediction, only application of Gaussian processes to violent event prediction  &  &  &  & &  &  & &  &  &  &  &  & &  &  &  &  &  &  &  &  & & &
                  \cite{zhao_spatiotemporal_2015} & Semantic, Aggregate, Hybrid, Continuous state system / Markov-based, Supervised, Adjusted EM, Process-agnostic input, Global  &  &  &  & &  &  & &  &  &  &  &  & &  &  &  &  &  &  &  &  & & &
                  \cite{ning_staple_2018} & Location, Point-based, Hybrid, Discrete state system / Bayesian-based, Supervised, Proposed, Process-agnostic input, Global / Local cluster  &  &  &  & &  &  & &  &  &  &  &  & &  &  &  &  &  &  &  &  & & &
                  \cite{laxman_stream_2008} & Semantic, Aggregate, Hybrid, Discrete state system / Markov-based, Supervised, Proposed, Process-aware input, Global  &  &  &  & &  &  & &  &  &  &  &  & &  &  &  &  &  &  &  &  & & &
                  \cite{mirtaheri_tensor-based_2019} & No prediction, only tensor-based application   &  &  &  & &  &  & &  &  &  &  &  & &  &  &  &  &  &  &  &  & & &
                  \cite{li_wisdom_2016} & Time and Location and Semantic, Discrete and Raster-based and Categorical, Generative, Discrete state system, Supervised, CDA / LMSR, Process-agnostic input, Global  &  &  &  & &  &  & &  &  &  &  &  & &  &  &  &  &  &  &  &  & & &
                  \cite{kattan_time-series_2015} & Time, Discrete, Inferential, Distance-based, Unsupervised, Proposed, Process-agnostic input, Local cluster  &  &  &  & &  &  & &  &  &  &  &  & &  &  &  &  &  &  &  &  & & &
                  \cite{hashimoto_toward_2014} & No prediction, event extraction  &  &  &  & &  &  & &  &  &  &  &  & &  &  &  &  &  &  &  &  & & &
                  \cite{di_traffic_2019} & Time and Location, Discrete and Raster-based, Inferential, Neural network, Supervised, ?, Process-agnostic input, Global  &  &  &  & &  &  & &  &  &  &  &  & &  &  &  &  &  &  &  &  & & &
                  \cite{compton_using_2014} & Time and Location and Semantic, Discrete and Raster-based and Categorical, Inferential, Combination Regression / Distance-based, Supervised, ?, Process-agnostic input, Global  &  &  &  & &  &  & &  &  &  &  &  & &  &  &  &  &  &  &  &  & & &
                  \cite{wang_using_2015} & Location, Raster-based, Inferential, Distance-based, Supervised, LibLinear, Process-agnostic input, Global  &  &  &  & &  &  & &  &  &  &  &  & &  &  &  &  &  &  &  &  & & &
                  \cite{hu_what_2017} & Semantic, Categorical, Inferential, Neural network, Supervised, Batch gradient descent, Process-agnostic input, Global  & &  &  & &  &  & &  &  &  &  &  & &  &  &  &  &  &  &  &  & & &
                  \cite{gao_clinical_2022} & Time, Continuous, Hybrid, Continuous state system / Neural network, Supervised, ?, Process-agnostic input, Global   &  &  &  & &  &  & &  &  &  &  &  & &  &  &  &  &  &  &  &  & & &
                  \cite{hoegh_bayesian_2015} & Time and Location and Semantic, Discrete and Raster-based and Aggregate, Inferential, Combination Regression / Distance-based, Supervised, Process-agnostic input, Local cluster  &  &  &  & &  &  & &  &  &  &  &  & &  &  &  &  &  &  &  &  & & &
                  \cite{wang_incomplete_2018} & Time, Occurrence, Inferential, Regression, Supervised, Proposed, Process-agnostic input, Global / Local cluster &  &  &  & &  &  & &  &  &  &  &  & &  &  &  &  &  &  &  &  & & &
                  \cite{pirajan_towards_2019} & Location, Raster-based, Inferential, Neural network, Supervised, ?, Process-agnostic input, Global  &  &  &  & &  &  & &  &  &  &  &  & &  &  &  &  &  &  &  &  & & &
                  \cite{yan_research_2004} & Time, Occurrence, Inferential, Neural network, Supervised, ? &  &  &  & &  &  & &  &  &  &  &  & &  &  &  &  &  &  &  &  & & &
